"","microsim.init.id","microsim.init.zone","microsim.init.sex","microsim.init.age","microsim.init.race","microsim.roles.employment.status","microsim.roles.parenthood.status","microsim.roles.marital.status","microsim.init.education","microsim.init.income","microsim.init.drinkingstatus","microsim.init.drink.frequency","microsim.init.heavy.episodic.drinking","microsim.init.drinks.per.month","microsim.init.alc.gpd"
"1721653",1,4,1,70,"WHI",0,0,1,"highschool",4,1,3,0,2,0.9333333
"1176047",2,4,1,15,"WHI",0,0,0,"highschool",93,1,1,0,0,0
"1078313",3,4,0,61,"WHI",0,0,1,"highschool",2,1,2,0,1,0.4666667
"1329799",4,4,1,26,"WHI",1,1,1,"somecollege",7,1,2,0,1,0.4666667
"1274684",5,4,1,20,"WHI",1,0,0,"somecollege",2,1,5,3,10,4.666667
"209754",6,4,0,29,"OTH",0,1,1,"highschool",6,1,2,0,0,0
"360227",7,4,0,12,"WHI",0,0,0,"highschool",93,0,1,0,0,0
"1056587",8,4,0,80,"WHI",0,0,1,"highschool",2,0,1,0,0,0
"784897",9,4,0,43,"WHI",1,1,0,"highschool",2,1,5,0,15,7
"841662",10,4,0,47,"WHI",1,1,1,"highschool",6,0,1,0,0,0
"725590",11,4,0,38,"WHI",1,1,1,"somecollege",7,0,1,0,0,0
"919674",12,4,0,55,"WHI",0,1,1,"highschool",1,1,1,0,0,0
"1053690",13,4,0,66,"WHI",0,0,1,"highschool",2,0,1,0,0,0
"1342118",14,4,1,28,"WHI",1,1,1,"somecollege",4,0,1,0,0,0
"1546446",15,4,1,40,"WHI",1,1,0,"collegeplus",9,1,4,0,4,1.866667
"969911",16,4,0,61,"WHI",0,0,1,"highschool",2,0,1,0,0,0
"466458",17,4,0,19,"WHI",1,0,0,"highschool",7,1,1,0,0,0
"1760479",18,4,1,61,"WHI",0,1,0,"somecollege",2,0,1,0,0,0
"435551",19,4,0,17,"WHI",0,0,0,"highschool",93,1,5,7,42,19.6
"588453",20,4,0,28,"WHI",1,0,1,"highschool",6,1,2,0,1,0.4666667
"1325399",21,4,1,28,"WHI",1,0,0,"somecollege",4,1,6,3,40,18.66667
"1817310",22,4,1,68,"WHI",0,0,1,"highschool",2,0,1,0,0,0
"45842",23,4,0,27,"BLA",1,1,0,"highschool",2,1,1,0,0,0
"809567",24,4,0,47,"WHI",0,1,0,"highschool",2,0,1,0,0,0
"1012802",25,4,0,68,"WHI",0,0,1,"highschool",2,0,1,0,0,0
"1443309",26,4,1,32,"WHI",1,1,1,"highschool",3,1,7,30,300,140
"369822",27,4,0,13,"WHI",0,0,0,"highschool",93,0,1,0,0,0
"433374",28,4,0,17,"WHI",0,0,0,"highschool",93,1,4,0,8,3.733333
"575791",29,4,0,27,"WHI",0,1,0,"somecollege",2,1,1,0,0,0
"829089",30,4,0,48,"WHI",1,0,0,"collegeplus",2,0,1,0,0,0
"979774",31,4,0,78,"WHI",0,0,1,"highschool",2,0,1,0,0,0
"455785",32,4,0,19,"WHI",0,0,0,"somecollege",6,1,5,1,6,2.8
"556450",33,4,0,28,"WHI",1,0,0,"collegeplus",3,1,1,0,0,0
"1585170",34,4,1,48,"WHI",1,0,1,"highschool",2,1,4,3,6,2.8
"321263",35,4,1,26,"SPA",1,0,1,"somecollege",4,1,5,0,60,28
"1161811",36,4,1,14,"WHI",0,0,0,"highschool",93,1,2,1,4,1.866667
"290062",37,4,0,58,"SPA",0,0,0,"highschool",2,0,1,0,0,0
"159576",38,4,1,31,"BLA",1,1,1,"highschool",2,0,1,0,0,0
"150704",39,4,1,28,"BLA",1,1,1,"highschool",4,1,3,0,2,0.9333333
"685361",40,4,0,31,"WHI",0,1,1,"highschool",6,1,2,0,2,0.9333333
"124032",41,4,1,19,"BLA",1,0,0,"highschool",3,1,2,0,2,0.933333333333333
"1622792",42,4,1,58,"WHI",0,1,1,"somecollege",4,1,6,0,28,13.06667
"276354",43,4,0,36,"SPA",0,1,1,"highschool",2,0,1,0,0,0
"1733752",44,4,1,81,"WHI",0,0,1,"highschool",2,0,1,0,0,0
"1051375",45,4,0,69,"WHI",0,0,0,"collegeplus",2,0,1,0,0,0
"1671327",46,4,1,55,"WHI",1,0,1,"highschool",4,1,4,0,3,1.4
"363147",47,4,0,12,"WHI",0,0,0,"highschool",93,0,1,0,0,0
"111926",48,4,1,13,"BLA",0,0,0,"highschool",93,1,2,0,1,0.4666667
"380052",49,4,0,17,"WHI",0,0,0,"highschool",93,1,2,0,1,0.4666667
"786765",50,4,0,42,"WHI",1,1,0,"collegeplus",3,1,1,0,0,0
"803367",51,4,0,48,"WHI",1,1,0,"highschool",2,0,1,0,0,0
"1499415",52,4,1,39,"WHI",1,1,1,"highschool",5,1,2,0,0,0
"91172",53,4,0,55,"BLA",1,0,0,"highschool",2,0,1,0,0,0
"812706",54,4,0,45,"WHI",1,1,0,"highschool",2,1,6,0,90,42
"1619170",55,4,1,57,"WHI",1,1,1,"collegeplus",7,1,6,0,15,7
"614061",56,4,0,29,"WHI",0,1,1,"highschool",2,0,1,0,0,0
"1494616",57,4,1,35,"WHI",1,1,1,"highschool",3,1,3,0,2,0.9333333
"236450",58,4,1,40,"OTH",1,1,1,"collegeplus",1,1,4,0,6,2.8
"1236838",59,4,1,20,"WHI",1,0,0,"somecollege",2,1,2,1,8,3.733333
"949544",60,4,0,55,"WHI",1,0,1,"collegeplus",7,0,1,0,0,0
"1452776",61,4,1,32,"WHI",1,1,1,"highschool",4,1,3,0,2,0.9333333
"1093307",62,4,0,67,"WHI",0,0,1,"highschool",2,0,1,0,0,0
"1669146",63,4,1,54,"WHI",1,0,1,"highschool",7,1,6,2,20,9.333333
"600708",64,4,0,27,"WHI",0,1,0,"highschool",3,1,1,0,0,0
"482280",65,4,0,21,"WHI",1,0,0,"somecollege",4,1,4,0,4,1.866667
"426377",66,4,0,16,"WHI",0,0,0,"highschool",93,0,1,0,0,0
"1157123",67,4,1,16,"WHI",0,0,0,"highschool",93,0,1,0,0,0
"683022",68,4,0,32,"WHI",1,1,0,"collegeplus",2,0,1,0,0,0
"665486",69,4,0,34,"WHI",0,1,0,"somecollege",2,1,1,0,0,0
"169646",70,4,1,43,"BLA",1,0,0,"highschool",4,1,5,0,15,7
"267538",71,4,0,27,"SPA",0,1,0,"somecollege",2,1,3,2,6,2.8
"1775639",72,4,1,69,"WHI",0,0,1,"highschool",2,1,5,0,10,4.666667
"1215565",73,4,1,19,"WHI",1,0,0,"highschool",7,1,5,1,8,3.733333
"1570799",74,4,1,45,"WHI",1,0,0,"somecollege",3,1,4,0,3,1.4
"1576868",75,4,1,48,"WHI",0,0,1,"somecollege",4,1,7,0,180,84
"73407",76,4,0,44,"BLA",1,1,0,"highschool",2,0,1,0,0,0
"1151331",77,4,1,17,"WHI",0,0,0,"highschool",93,1,4,1,18,8.4
"990724",78,4,0,61,"WHI",0,0,1,"highschool",3,1,1,0,0,0
"172484",79,4,1,44,"BLA",1,0,0,"highschool",4,1,5,0,15,7
"755728",80,4,0,40,"WHI",1,1,0,"highschool",2,1,3,0,0,0
"474707",81,4,0,22,"WHI",1,0,0,"somecollege",5,1,5,2,20,9.333333
"1372354",82,4,1,25,"WHI",0,0,0,"highschool",2,1,7,30,240,112
"269867",83,4,0,30,"SPA",0,1,1,"somecollege",4,0,1,0,0,0
"1643371",84,4,1,59,"WHI",1,1,1,"somecollege",4,1,3,0,4,1.866667
"1569945",85,4,1,47,"WHI",1,0,1,"highschool",2,1,4,0,4,1.866667
"607124",86,4,0,26,"WHI",1,0,0,"collegeplus",2,1,5,0,16,7.466667
"1071203",87,4,0,69,"WHI",0,0,0,"highschool",2,1,1,0,0,0
"636059",88,4,0,29,"WHI",0,1,0,"highschool",5,1,5,0,10,4.666667
"1735952",89,4,1,71,"WHI",0,0,1,"somecollege",4,1,3,0,4,1.866667
"821907",90,4,0,49,"WHI",1,0,0,"highschool",4,1,4,0,8,3.733333
"313190",91,4,1,20,"SPA",0,0,0,"somecollege",2,1,5,3,40,18.66667
"1799490",92,4,1,71,"WHI",0,1,0,"somecollege",2,0,1,0,0,0
"914130",93,4,0,55,"WHI",0,0,1,"highschool",2,1,4,0,8,3.733333
"1364160",94,4,1,27,"WHI",1,0,0,"collegeplus",6,1,6,0,0,0
"1448010",95,4,1,33,"WHI",1,0,0,"somecollege",6,1,2,0,0,0
"232243",96,4,1,29,"OTH",1,0,0,"highschool",4,1,2,0,1,0.4666667
"457434",97,4,0,18,"WHI",1,0,1,"highschool",5,1,2,0,1,0.4666667
"778396",98,4,0,41,"WHI",0,1,1,"highschool",2,1,1,0,0,0
"1654850",99,4,1,52,"WHI",1,0,0,"collegeplus",7,1,2,0,0,0
"1422620",100,4,1,31,"WHI",1,1,1,"collegeplus",4,1,3,0,4,1.866667
"1798706",101,4,1,64,"WHI",0,0,1,"highschool",2,0,1,0,0,0
"808024",102,4,0,47,"WHI",1,0,0,"collegeplus",2,0,1,0,0,0
"1682306",103,4,1,56,"WHI",0,0,1,"somecollege",4,1,5,0,24,11.2
"454238",104,4,0,18,"WHI",0,0,0,"highschool",4,1,3,0,2,0.9333333
"1666701",105,4,1,51,"WHI",1,0,1,"collegeplus",8,1,7,0,0,0
"782545",106,4,0,44,"WHI",0,1,1,"highschool",4,1,1,0,0,0
"1361853",107,4,1,28,"WHI",1,0,0,"highschool",2,1,5,0,0,0
"1337126",108,4,1,27,"WHI",0,0,0,"highschool",2,0,1,0,0,0
"327965",109,4,1,31,"SPA",1,1,1,"highschool",3,1,5,0,30,14
"33474",110,4,0,23,"BLA",0,1,1,"somecollege",2,1,2,0,2,0.9333333
"347753",111,4,1,64,"SPA",0,1,1,"highschool",2,1,2,0,1,0.4666667
"976570",112,4,0,66,"WHI",1,0,1,"highschool",2,1,3,0,0,0
"496568",113,4,0,22,"WHI",0,1,1,"somecollege",3,0,1,0,0,0
"884335",114,4,0,54,"WHI",1,0,0,"highschool",3,1,5,0,10,4.666667
"927720",115,4,0,57,"WHI",0,0,1,"highschool",6,0,1,0,0,0
"1815997",116,4,1,71,"WHI",0,0,1,"highschool",3,1,1,0,0,0
"722655",117,4,0,37,"WHI",1,1,1,"collegeplus",6,1,1,0,0,0
"54045",118,4,0,31,"BLA",0,1,0,"highschool",2,1,2,0,1,0.4666667
"1558037",119,4,1,44,"WHI",1,1,1,"highschool",4,1,6,4,100,46.66667
"1453623",120,4,1,34,"WHI",1,1,1,"highschool",5,1,5,0,18,8.4
"755044",121,4,0,44,"WHI",1,1,0,"highschool",2,1,5,2,36,16.8
"697849",122,4,0,39,"WHI",1,1,0,"collegeplus",6,1,5,0,10,4.66666666666667
"142818",123,4,1,26,"BLA",1,0,1,"highschool",4,1,4,1,12,5.6
"714561",124,4,0,38,"WHI",1,1,0,"highschool",2,1,4,0,3,1.4
"75200",125,4,0,48,"BLA",0,0,1,"highschool",2,1,7,0,60,28
"86092",126,4,0,52,"BLA",0,0,1,"highschool",6,0,1,0,0,0
"1348356",127,4,1,25,"WHI",1,0,0,"collegeplus",6,1,6,0,0,0
"1335371",128,4,1,25,"WHI",1,0,0,"highschool",3,1,2,0,1,0.4666667
"439918",129,4,0,19,"WHI",1,0,0,"somecollege",2,1,4,0,8,3.733333
"1532595",130,4,1,42,"WHI",1,1,1,"highschool",5,0,1,0,0,0
"383292",131,4,0,16,"WHI",0,0,0,"highschool",93,0,1,0,0,0
"1012968",132,4,0,73,"WHI",0,0,0,"highschool",2,0,1,0,0,0
"1574728",133,4,1,46,"WHI",1,0,0,"highschool",3,0,1,0,0,0
"1017120",134,4,0,79,"WHI",0,0,1,"highschool",4,1,6,0,0,0
"700176",135,4,0,37,"WHI",1,1,1,"highschool",2,1,1,0,0,0
"1761792",136,4,1,65,"WHI",0,0,1,"highschool",2,1,4,0,8,3.733333
"1405610",137,4,1,29,"WHI",1,0,0,"collegeplus",3,1,3,0,2,0.9333333
"994078",138,4,0,60,"WHI",0,0,1,"highschool",2,0,1,0,0,0
"1339523",139,4,1,28,"WHI",1,0,0,"highschool",2,1,5,0,0,0
"198440",140,4,1,63,"BLA",0,0,1,"highschool",2,0,1,0,0,0
"1164472",141,4,1,15,"WHI",0,0,0,"highschool",93,1,1,0,0,0
"1753477",142,4,1,79,"WHI",0,0,0,"highschool",2,0,1,0,0,0
"631972",143,4,0,29,"WHI",0,1,1,"somecollege",3,0,1,0,0,0
"696924",144,4,0,32,"WHI",1,0,1,"somecollege",4,0,1,0,0,0
"121699",145,4,1,16,"BLA",0,0,0,"highschool",93,0,1,0,0,0
"1610261",146,4,1,50,"WHI",0,0,1,"highschool",2,0,1,0,0,0
"896240",147,4,0,51,"WHI",0,0,0,"somecollege",2,1,1,0,0,0
"1243321",148,4,1,21,"WHI",1,0,1,"somecollege",4,1,2,0,1,0.4666667
"768333",149,4,0,41,"WHI",0,1,0,"highschool",2,1,6,1,45,21
"1376288",150,4,1,26,"WHI",1,0,0,"highschool",5,1,6,1,140,65.33333
"625719",151,4,0,29,"WHI",0,1,1,"collegeplus",4,1,5,1,20,9.333333
"462693",152,4,0,19,"WHI",1,0,0,"somecollege",2,1,4,0,8,3.733333
"1421888",153,4,1,33,"WHI",1,0,0,"highschool",5,1,1,0,0,0
"793479",154,4,0,40,"WHI",1,1,0,"highschool",2,1,5,0,15,7
"1081325",155,4,0,72,"WHI",0,0,1,"somecollege",2,1,4,0,8,3.733333
"889540",156,4,0,57,"WHI",1,1,0,"highschool",3,0,1,0,0,0
"350828",157,4,0,13,"WHI",0,0,0,"highschool",93,0,1,0,0,0
"1740440",158,4,1,67,"WHI",0,0,1,"highschool",2,0,1,0,0,0
"640701",159,4,0,29,"WHI",0,1,0,"somecollege",2,1,1,0,0,0
"473081",160,4,0,21,"WHI",0,0,0,"collegeplus",1,1,5,0,12,5.6
"1299702",161,4,1,24,"WHI",1,0,0,"somecollege",3,1,2,0,2,0.9333333
"193528",162,4,1,72,"BLA",0,0,0,"highschool",2,0,1,0,0,0
"800395",163,4,0,43,"WHI",1,1,0,"collegeplus",3,1,1,0,0,0
"1515827",164,4,1,35,"WHI",1,1,0,"highschool",3,1,1,0,0,0
"585452",165,4,0,28,"WHI",1,1,0,"highschool",2,1,3,0,2,0.9333333
"538177",166,4,0,23,"WHI",0,1,1,"highschool",5,0,1,0,0,0
"1223884",167,4,1,19,"WHI",0,0,0,"somecollege",2,1,5,1,60,28
"238346",168,4,1,49,"OTH",1,0,0,"somecollege",5,0,1,0,0,0
"1585381",169,4,1,49,"WHI",1,0,1,"highschool",2,1,4,0,4,1.866667
"1330777",170,4,1,27,"WHI",1,0,0,"collegeplus",4,1,6,0,15,7
"1125684",171,4,1,13,"WHI",0,0,0,"highschool",93,0,1,0,0,0
"1148130",172,4,1,17,"WHI",0,0,0,"highschool",93,1,6,2,90,42
"339013",173,4,1,48,"SPA",1,1,1,"highschool",5,1,3,0,2,0.9333333
"928304",174,4,0,59,"WHI",1,0,1,"highschool",5,1,2,0,0,0
"1244413",175,4,1,21,"WHI",0,0,0,"collegeplus",2,0,1,0,0,0
"1560720",176,4,1,43,"WHI",1,1,1,"highschool",5,0,1,0,0,0
"216884",177,4,0,45,"OTH",0,0,1,"highschool",2,0,1,0,0,0
"575529",178,4,0,27,"WHI",0,0,0,"somecollege",2,1,2,0,3,1.4
"1379429",179,4,1,29,"WHI",1,0,0,"highschool",5,1,7,3,120,56
"1028954",180,4,0,71,"WHI",0,0,0,"highschool",2,0,1,0,0,0
"1004693",181,4,0,72,"WHI",0,0,1,"highschool",2,0,1,0,0,0
"1774650",182,4,1,62,"WHI",0,0,1,"highschool",4,1,7,0,0,0
"1265406",183,4,1,21,"WHI",1,0,1,"highschool",4,0,1,0,0,0
"1650291",184,4,1,53,"WHI",1,1,1,"collegeplus",7,1,6,0,15,7
"611495",185,4,0,28,"WHI",1,1,1,"highschool",4,1,1,0,0,0
"463686",186,4,0,19,"WHI",1,0,0,"somecollege",3,1,4,0,6,2.8
"702045",187,4,0,36,"WHI",0,1,0,"highschool",2,1,5,5,25,11.66667
"647169",188,4,0,32,"WHI",0,1,1,"somecollege",2,1,2,0,0,0
"1474167",189,4,1,36,"WHI",1,1,1,"highschool",2,0,1,0,0,0
"938768",190,4,0,50,"WHI",0,0,1,"highschool",2,0,1,0,0,0
"1071016",191,4,0,61,"WHI",0,0,1,"somecollege",2,0,1,0,0,0
"383874",192,4,0,15,"WHI",0,0,0,"highschool",93,1,5,0,18,8.4
"108266",193,4,1,12,"BLA",0,0,0,"highschool",93,0,1,0,0,0
"467644",194,4,0,18,"WHI",1,1,1,"highschool",2,1,3,1,10,4.666667
"583658",195,4,0,27,"WHI",0,1,1,"highschool",3,1,1,0,0,0
"1810290",196,4,1,74,"WHI",0,0,1,"highschool",2,1,2,0,0,0
"1732059",197,4,1,64,"WHI",0,0,1,"highschool",2,0,1,0,0,0
"1658530",198,4,1,51,"WHI",0,0,1,"highschool",3,1,5,4,28,13.06667
"1384614",199,4,1,29,"WHI",1,0,0,"somecollege",3,1,4,4,20,9.333333
"707654",200,4,0,37,"WHI",1,1,1,"highschool",6,0,1,0,0,0
"641035",201,4,0,29,"WHI",0,0,1,"highschool",2,0,1,0,0,0
"42166",202,4,0,27,"BLA",0,1,0,"highschool",2,1,5,0,6,2.8
"1216286",203,4,1,18,"WHI",1,0,0,"highschool",3,1,7,20,90,42
"1092992",204,4,0,62,"WHI",0,0,0,"highschool",2,1,2,0,2,0.9333333
"1663337",205,4,1,55,"WHI",1,0,1,"highschool",4,0,1,0,0,0
"1295577",206,4,1,24,"WHI",0,0,0,"somecollege",2,1,5,2,30,14
"612259",207,4,0,27,"WHI",0,1,1,"highschool",2,0,1,0,0,0
"727521",208,4,0,38,"WHI",0,1,0,"highschool",2,1,2,1,0,0
"1354714",209,4,1,25,"WHI",0,0,0,"highschool",2,0,1,0,0,0
"1690089",210,4,1,52,"WHI",1,0,1,"highschool",4,1,5,0,30,14
"748522",211,4,0,35,"WHI",1,1,0,"highschool",2,1,4,0,3,1.4
"272145",212,4,0,34,"SPA",1,1,0,"highschool",2,1,2,0,2,0.9333333
"646032",213,4,0,33,"WHI",1,1,0,"collegeplus",3,1,6,0,60,28
"1305852",214,4,1,23,"WHI",0,0,0,"somecollege",4,1,7,2,30,14
"269449",215,4,0,29,"SPA",1,0,1,"collegeplus",6,1,6,0,20,9.333333
"920686",216,4,0,51,"WHI",1,1,0,"highschool",2,1,2,0,1,0.4666667
"1096709",217,4,0,62,"WHI",0,0,1,"highschool",3,0,1,0,0,0
"1176233",218,4,1,15,"WHI",0,0,0,"highschool",93,1,3,0,6,2.8
"1589244",219,4,1,46,"WHI",1,1,1,"somecollege",5,1,5,2,8,3.733333
"1001477",220,4,0,67,"WHI",0,0,1,"highschool",5,1,5,0,18,8.4
"611772",221,4,0,28,"WHI",1,1,1,"somecollege",2,1,2,0,1,0.4666667
"504859",222,4,0,20,"WHI",1,1,0,"highschool",2,1,3,0,2,0.9333333
"388250",223,4,0,17,"WHI",0,0,0,"highschool",93,1,1,0,0,0
"426176",224,4,0,16,"WHI",0,0,0,"highschool",93,1,1,0,0,0
"1428278",225,4,1,32,"WHI",0,1,1,"collegeplus",4,1,6,1,50,23.33333
"1013320",226,4,0,74,"WHI",0,0,0,"highschool",2,1,4,0,3,1.4
"610633",227,4,0,25,"WHI",0,1,0,"collegeplus",2,1,4,0,3,1.4
"1092318",228,4,0,66,"WHI",1,0,1,"highschool",2,0,1,0,0,0
"1686520",229,4,1,58,"WHI",0,0,1,"highschool",2,0,1,0,0,0
"65274",230,4,0,35,"BLA",1,1,0,"highschool",6,1,5,0,10,4.666667
"1051520",231,4,0,72,"WHI",0,0,1,"highschool",2,0,1,0,0,0
"1214285",232,4,1,19,"WHI",1,0,0,"highschool",7,1,6,3,30,14
"1713673",233,4,1,75,"WHI",0,0,1,"highschool",2,1,5,0,15,7
"1678020",234,4,1,59,"WHI",1,0,1,"highschool",3,0,1,0,0,0
"303471",235,4,1,15,"SPA",0,0,0,"highschool",93,1,1,0,0,0
"1034314",236,4,0,66,"WHI",0,0,1,"highschool",2,1,2,0,1,0.4666667
"141611",237,4,1,24,"BLA",1,0,0,"highschool",3,1,4,0,3,1.4
"515045",238,4,0,22,"WHI",1,0,0,"somecollege",2,1,5,2,50,23.33333
"538657",239,4,0,23,"WHI",0,0,0,"somecollege",2,0,1,0,0,0
"1563929",240,4,1,44,"WHI",0,0,0,"highschool",2,0,1,0,0,0
"534181",241,4,0,23,"WHI",1,0,1,"collegeplus",6,0,1,0,0,0
"1303375",242,4,1,24,"WHI",1,1,1,"highschool",4,1,5,0,20,9.333333
"1305653",243,4,1,24,"WHI",1,0,0,"somecollege",7,1,6,7,40,18.66667
"750750",244,4,0,39,"WHI",0,1,0,"highschool",2,1,2,1,0,0
"1423718",245,4,1,34,"WHI",1,0,0,"highschool",4,0,1,0,0,0
"962108",246,4,0,63,"WHI",0,0,1,"highschool",3,1,3,0,4,1.866667
"688366",247,4,0,33,"WHI",0,1,0,"highschool",2,1,4,0,6,2.8
"164477",248,4,1,35,"BLA",1,0,1,"collegeplus",7,1,2,0,1,0.4666667
"841285",249,4,0,48,"WHI",1,1,0,"somecollege",2,0,1,0,0,0
"1757785",250,4,1,61,"WHI",0,0,1,"highschool",2,1,4,0,8,3.733333
"167899",251,4,1,36,"BLA",1,1,1,"highschool",3,0,1,0,0,0
"475138",252,4,0,20,"WHI",0,0,0,"collegeplus",1,1,5,0,12,5.6
"1635988",253,4,1,54,"WHI",1,0,1,"somecollege",6,1,6,4,30,14
"611581",254,4,0,25,"WHI",0,0,0,"collegeplus",2,1,5,1,20,9.333333
"1111132",255,4,1,12,"WHI",0,0,0,"highschool",93,0,1,0,0,0
"1218153",256,4,1,19,"WHI",0,0,1,"highschool",2,1,5,4,49,22.86667
"1222893",257,4,1,19,"WHI",1,0,0,"highschool",7,1,3,0,8,3.733333
"251358",258,4,0,16,"SPA",0,0,0,"highschool",93,0,1,0,0,0
"1624361",259,4,1,58,"WHI",0,0,1,"highschool",2,0,1,0,0,0
"1181603",260,4,1,16,"WHI",0,0,0,"highschool",93,0,1,0,0,0
"1352954",261,4,1,27,"WHI",1,1,1,"highschool",2,0,1,0,0,0
"733694",262,4,0,35,"WHI",0,1,1,"somecollege",4,1,1,0,0,0
"528108",263,4,0,24,"WHI",1,1,1,"highschool",5,1,1,0,0,0
"1179955",264,4,1,15,"WHI",0,0,0,"highschool",93,1,5,0,0,0
"1333096",265,4,1,26,"WHI",1,0,0,"highschool",2,1,5,0,0,0
"1714442",266,4,1,71,"WHI",0,0,0,"highschool",2,1,4,0,8,3.733333
"1029298",267,4,0,72,"WHI",0,0,1,"highschool",2,0,1,0,0,0
"203689",268,4,0,20,"OTH",0,0,0,"somecollege",2,1,4,0,9,4.2
"976736",269,4,0,76,"WHI",0,0,1,"highschool",2,1,1,0,0,0
"1699269",270,4,1,55,"WHI",1,0,1,"highschool",7,1,6,2,20,9.333333
"290980",271,4,0,56,"SPA",0,0,0,"highschool",2,0,1,0,0,0
"1151745",272,4,1,17,"WHI",0,0,0,"highschool",93,1,3,0,2,0.9333333
"340727",273,4,1,45,"SPA",1,1,1,"highschool",3,0,1,0,0,0
"804320",274,4,0,46,"WHI",1,0,0,"collegeplus",2,0,1,0,0,0
"1234784",275,4,1,21,"WHI",1,0,0,"highschool",4,1,6,3,56,26.1333333333333
"823683",276,4,0,48,"WHI",0,0,1,"highschool",4,1,5,0,20,9.333333
"995818",277,4,0,78,"WHI",0,0,0,"highschool",2,1,2,0,2,0.9333333
"1122045",278,4,1,13,"WHI",0,0,0,"highschool",93,1,2,0,2,0.9333333
"1178149",279,4,1,17,"WHI",0,0,0,"highschool",93,1,2,0,2,0.9333333
"326163",280,4,1,34,"SPA",1,1,1,"highschool",3,1,5,0,30,14
"744950",281,4,0,37,"WHI",0,1,0,"highschool",2,0,1,0,0,0
"1764346",282,4,1,62,"WHI",0,0,1,"highschool",2,1,2,0,1,0.4666667
"1301381",283,4,1,23,"WHI",0,0,0,"collegeplus",2,1,4,2,9,4.2
"784787",284,4,0,41,"WHI",1,0,1,"highschool",4,0,1,0,0,0
"1117500",285,4,1,13,"WHI",0,0,0,"highschool",93,1,1,0,0,0
"509467",286,4,0,21,"WHI",1,0,0,"collegeplus",2,1,6,1,75,35
"589307",287,4,0,25,"WHI",0,1,0,"collegeplus",2,1,4,0,3,1.4
"1703109",288,4,1,55,"WHI",0,0,1,"highschool",2,0,1,0,0,0
"811285",289,4,0,49,"WHI",1,0,0,"collegeplus",2,0,1,0,0,0
"300700",290,4,1,14,"SPA",0,0,0,"highschool",93,0,1,0,0,0
"997692",291,4,0,76,"WHI",0,0,1,"highschool",4,1,1,0,0,0
"1718403",292,4,1,71,"WHI",1,0,0,"highschool",6,1,5,1,0,0
"259908",293,4,0,23,"SPA",0,1,0,"highschool",1,1,1,0,0,0
"1086077",294,4,0,66,"WHI",0,0,1,"highschool",2,0,1,0,0,0
"459822",295,4,0,19,"WHI",1,0,0,"somecollege",2,1,5,1,12,5.6
"216696",296,4,0,46,"OTH",0,0,1,"highschool",2,0,1,0,0,0
"465302",297,4,0,19,"WHI",0,0,0,"somecollege",2,1,1,0,0,0
"1154917",298,4,1,15,"WHI",0,0,0,"highschool",93,0,1,0,0,0
"1761042",299,4,1,75,"WHI",0,0,0,"highschool",3,0,1,0,0,0
"1812587",300,4,1,68,"WHI",1,0,1,"highschool",3,0,1,0,0,0
"103703",301,4,0,65,"BLA",0,1,0,"highschool",2,0,1,0,0,0
"1564324",302,4,1,42,"WHI",0,0,0,"highschool",2,0,1,0,0,0
"210073",303,4,0,33,"OTH",0,1,1,"highschool",6,1,1,0,0,0
"502947",304,4,0,21,"WHI",0,0,0,"highschool",1,0,1,0,0,0
"10608",305,4,0,16,"BLA",0,0,0,"highschool",93,0,1,0,0,0
"1353356",306,4,1,25,"WHI",1,0,0,"highschool",4,1,4,0,3,1.4
"1589657",307,4,1,46,"WHI",1,0,1,"highschool",2,0,1,0,0,0
"1700299",308,4,1,56,"WHI",1,0,0,"somecollege",1,1,4,0,6,2.8
"1181818",309,4,1,17,"WHI",0,0,0,"highschool",93,1,1,0,0,0
"1312848",310,4,1,24,"WHI",1,0,1,"highschool",6,1,3,1,6,2.8
"1488726",311,4,1,36,"WHI",1,0,0,"somecollege",4,0,1,0,0,0
"1545970",312,4,1,40,"WHI",1,0,1,"somecollege",6,1,4,0,3,1.4
"1652339",313,4,1,50,"WHI",1,0,0,"somecollege",1,1,4,0,6,2.8
"452232",314,4,0,19,"WHI",0,0,0,"somecollege",6,1,5,1,6,2.8
"1691473",315,4,1,50,"WHI",1,0,1,"highschool",4,1,4,0,3,1.4
"700821",316,4,0,36,"WHI",0,1,1,"collegeplus",5,1,4,0,8,3.73333333333333
"614482",317,4,0,30,"WHI",1,1,0,"somecollege",4,1,4,0,4,1.866667
"1276294",318,4,1,20,"WHI",0,0,0,"collegeplus",2,1,2,0,1,0.4666667
"616232",319,4,0,29,"WHI",1,0,1,"collegeplus",9,1,5,0,18,8.4
"1182611",320,4,1,15,"WHI",0,0,0,"highschool",93,1,4,2,16,7.466667
"885822",321,4,0,50,"WHI",1,1,0,"collegeplus",5,1,4,0,3,1.4
"1697223",322,4,1,52,"WHI",1,1,1,"collegeplus",8,1,4,0,6,2.8
"1162804",323,4,1,17,"WHI",0,0,0,"highschool",93,1,4,0,8,3.733333
"1269203",324,4,1,21,"WHI",1,0,0,"somecollege",2,1,4,1,16,7.466667
"553970",325,4,0,28,"WHI",0,1,0,"collegeplus",2,1,4,0,3,1.4
"561189",326,4,0,25,"WHI",0,1,0,"highschool",7,1,6,5,60,28
"1352722",327,4,1,26,"WHI",1,0,1,"collegeplus",5,1,4,0,12,5.6
"1624503",328,4,1,55,"WHI",0,0,1,"highschool",2,0,1,0,0,0
"1673815",329,4,1,58,"WHI",0,0,1,"highschool",2,0,1,0,0,0
"1657123",330,4,1,55,"WHI",1,0,0,"somecollege",1,1,4,0,6,2.8
"1473289",331,4,1,38,"WHI",1,1,1,"highschool",4,0,1,0,0,0
"106641",332,4,0,60,"BLA",0,1,0,"highschool",2,0,1,0,0,0
"1696876",333,4,1,52,"WHI",0,0,1,"highschool",2,1,6,0,15,7
"1637080",334,4,1,52,"WHI",0,0,1,"highschool",3,1,5,4,28,13.06667
"506995",335,4,0,22,"WHI",0,0,0,"somecollege",1,1,3,2,6,2.8
"640478",336,4,0,29,"WHI",0,1,1,"highschool",2,0,1,0,0,0
"844396",337,4,0,49,"WHI",1,1,1,"collegeplus",8,1,1,0,0,0
"1006516",338,4,0,60,"WHI",0,0,1,"highschool",2,1,1,0,0,0
"1717408",339,4,1,63,"WHI",0,0,1,"highschool",2,1,1,0,0,0
"1254578",340,4,1,20,"WHI",0,0,0,"somecollege",2,1,6,5,162,75.6
"1529034",341,4,1,40,"WHI",1,1,1,"somecollege",7,1,2,0,0,0
"1498871",342,4,1,36,"WHI",1,1,1,"collegeplus",6,1,2,0,0,0
"268825",343,4,0,30,"SPA",1,1,0,"highschool",4,1,1,0,0,0
"563670",344,4,0,28,"WHI",1,0,0,"somecollege",2,1,2,1,5,2.333333
"151079",345,4,1,25,"BLA",1,1,0,"highschool",3,1,3,0,2,0.9333333
"447173",346,4,0,19,"WHI",1,0,0,"somecollege",2,1,4,0,8,3.733333
"1143947",347,4,1,14,"WHI",0,0,0,"highschool",93,0,1,0,0,0
"1656227",348,4,1,51,"WHI",1,0,0,"somecollege",1,1,4,0,6,2.8
"402296",349,4,0,17,"WHI",0,0,0,"highschool",93,1,3,0,6,2.8
"759590",350,4,0,42,"WHI",0,1,0,"highschool",2,1,1,0,0,0
"276540",351,4,0,36,"SPA",0,1,1,"highschool",2,0,1,0,0,0
"917869",352,4,0,55,"WHI",0,0,1,"highschool",6,0,1,0,0,0
"1181900",353,4,1,15,"WHI",0,0,0,"highschool",93,1,4,0,9,4.2
"566961",354,4,0,26,"WHI",1,1,1,"highschool",5,1,2,0,2,0.9333333
"273776",355,4,0,33,"SPA",0,1,0,"highschool",2,0,1,0,0,0
"1121541",356,4,1,13,"WHI",0,0,0,"highschool",93,0,1,0,0,0
"1139418",357,4,1,16,"WHI",0,0,0,"highschool",93,0,1,0,0,0
"1263846",358,4,1,20,"WHI",1,0,0,"highschool",9,1,7,6,300,140
"586183",359,4,0,26,"WHI",1,0,0,"highschool",3,1,6,0,20,9.333333
"1357485",360,4,1,25,"WHI",0,0,0,"highschool",2,0,1,0,0,0
"254278",361,4,0,19,"SPA",1,0,0,"highschool",2,1,3,0,2,0.9333333
"1541167",362,4,1,40,"WHI",1,1,1,"highschool",7,1,7,0,0,0
"1515405",363,4,1,39,"WHI",1,1,1,"somecollege",5,1,5,2,40,18.66667
"323674",364,4,1,29,"SPA",1,1,1,"highschool",2,1,3,0,4,1.866667
"247318",365,4,0,14,"SPA",0,0,0,"highschool",93,0,1,0,0,0
"1422870",366,4,1,33,"WHI",1,0,0,"collegeplus",9,1,1,0,0,0
"1758818",367,4,1,64,"WHI",0,1,0,"somecollege",2,0,1,0,0,0
"1205941",368,4,1,18,"WHI",0,0,1,"highschool",2,1,5,4,49,22.86667
"261423",369,4,0,24,"SPA",0,1,0,"highschool",1,1,1,0,0,0
"334686",370,4,1,41,"SPA",0,1,1,"highschool",2,1,2,0,1,0.4666667
"380113",371,4,0,14,"WHI",0,0,0,"highschool",93,1,4,0,6,2.8
"1797885",372,4,1,75,"WHI",0,0,1,"highschool",2,0,1,0,0,0
"812735",373,4,0,46,"WHI",0,0,1,"somecollege",6,1,2,0,3,1.4
"373003",374,4,0,13,"WHI",0,0,0,"highschool",93,1,1,0,0,0
"951131",375,4,0,58,"WHI",0,0,1,"collegeplus",7,1,1,0,0,0
"591416",376,4,0,26,"WHI",1,1,1,"highschool",6,0,1,0,0,0
"916120",377,4,0,56,"WHI",1,0,1,"highschool",2,0,1,0,0,0
"1154030",378,4,1,14,"WHI",0,0,0,"highschool",93,1,4,0,12,5.6
"703986",379,4,0,36,"WHI",0,1,0,"highschool",2,0,1,0,0,0
"249831",380,4,0,15,"SPA",0,0,0,"highschool",93,0,1,0,0,0
"110330",381,4,1,13,"BLA",0,0,0,"highschool",93,0,1,0,0,0
"137357",382,4,1,22,"BLA",1,0,0,"highschool",3,1,6,7,75,35
"1711813",383,4,1,64,"WHI",0,0,1,"highschool",2,1,2,0,1,0.4666667
"81539",384,4,0,58,"BLA",0,1,1,"highschool",2,0,1,0,0,0
"1211137",385,4,1,19,"WHI",0,0,0,"somecollege",2,1,5,1,60,28
"218512",386,4,0,59,"OTH",0,0,1,"highschool",1,0,1,0,0,0
"1565162",387,4,1,46,"WHI",1,0,1,"highschool",2,1,4,0,4,1.86666666666667
"73084",388,4,0,40,"BLA",1,1,0,"highschool",2,0,1,0,0,0
"833300",389,4,0,49,"WHI",1,1,1,"somecollege",1,1,1,0,0,0
"1592529",390,4,1,46,"WHI",1,0,1,"somecollege",6,1,4,0,4,1.866667
"559621",391,4,0,27,"WHI",0,1,1,"highschool",2,0,1,0,0,0
"213124",392,4,0,35,"OTH",1,0,0,"collegeplus",7,1,1,0,0,0
"404448",393,4,0,16,"WHI",0,0,0,"highschool",93,1,1,0,0,0
"567051",394,4,0,27,"WHI",1,0,0,"highschool",3,1,6,0,20,9.333333
"511223",395,4,0,21,"WHI",0,0,0,"highschool",4,1,4,1,24,11.2
"1383797",396,4,1,29,"WHI",1,1,1,"collegeplus",2,1,4,0,16,7.466667
"1404968",397,4,1,29,"WHI",1,1,1,"somecollege",6,1,3,2,10,4.666667
"1758531",398,4,1,72,"WHI",1,0,1,"highschool",6,1,6,0,0,0
"1435993",399,4,1,34,"WHI",1,1,1,"somecollege",6,1,2,0,3,1.4
"1166921",400,4,1,17,"WHI",0,0,0,"highschool",93,0,1,0,0,0
"675940",401,4,0,33,"WHI",0,1,0,"highschool",2,1,4,0,6,2.8
"425857",402,4,0,14,"WHI",0,0,0,"highschool",93,1,5,2,8,3.733333
"955270",403,4,0,72,"WHI",0,0,1,"highschool",2,1,2,0,1,0.466666666666667
"1071163",404,4,0,65,"WHI",0,0,1,"collegeplus",5,1,5,0,20,9.333333
"988593",405,4,0,71,"WHI",0,0,1,"highschool",2,0,1,0,0,0
"920547",406,4,0,50,"WHI",0,0,1,"highschool",4,0,1,0,0,0
"342411",407,4,1,50,"SPA",1,1,1,"highschool",3,1,5,0,21,9.8
"480639",408,4,0,21,"WHI",0,1,0,"highschool",2,1,2,0,1,0.4666667
"1284667",409,4,1,24,"WHI",1,0,0,"highschool",2,1,6,4,40,18.6666666666667
"749652",410,4,0,36,"WHI",0,1,0,"highschool",1,0,1,0,0,0
"205101",411,4,0,21,"OTH",0,1,0,"highschool",2,1,1,0,0,0
"186570",412,4,1,55,"BLA",0,1,1,"highschool",2,1,1,0,0,0
"843369",413,4,0,46,"WHI",1,1,0,"highschool",3,1,5,0,15,7
"1202198",414,4,1,19,"WHI",0,0,0,"somecollege",2,1,1,0,0,0
"358350",415,4,0,12,"WHI",0,0,0,"highschool",93,0,1,0,0,0
"733430",416,4,0,39,"WHI",0,1,1,"somecollege",4,0,1,0,0,0
"603802",417,4,0,25,"WHI",0,0,0,"collegeplus",2,1,5,1,20,9.333333
"529497",418,4,0,24,"WHI",1,0,0,"highschool",3,1,5,1,30,14
"738089",419,4,0,36,"WHI",1,1,0,"highschool",2,1,4,0,3,1.4
"566047",420,4,0,26,"WHI",1,1,0,"highschool",2,1,3,0,2,0.9333333
"1092423",421,4,0,60,"WHI",0,0,1,"highschool",2,0,1,0,0,0
"492529",422,4,0,20,"WHI",0,0,0,"highschool",1,0,1,0,0,0
"171207",423,4,1,44,"BLA",1,0,0,"highschool",4,1,5,0,15,7
"1441123",424,4,1,34,"WHI",1,1,1,"collegeplus",9,1,6,0,45,21
"656383",425,4,0,34,"WHI",0,1,1,"highschool",2,0,1,0,0,0
"1379",426,4,0,13,"BLA",0,0,0,"highschool",93,0,1,0,0,0
"158176",427,4,1,33,"BLA",1,1,1,"highschool",2,0,1,0,0,0
"950549",428,4,0,57,"WHI",0,0,1,"highschool",2,0,1,0,0,0
"640927",429,4,0,30,"WHI",1,1,0,"highschool",2,1,5,2,18,8.4
"551745",430,4,0,27,"WHI",1,0,0,"somecollege",2,1,2,1,5,2.33333333333333
"786411",431,4,0,44,"WHI",1,1,0,"highschool",4,1,4,0,8,3.733333
"542561",432,4,0,23,"WHI",1,0,1,"collegeplus",3,1,6,0,0,0
"1518102",433,4,1,39,"WHI",1,1,1,"collegeplus",6,1,5,0,14,6.533333
"684454",434,4,0,32,"WHI",0,1,0,"somecollege",2,1,1,0,0,0
"1342355",435,4,1,25,"WHI",1,0,0,"somecollege",2,0,1,0,0,0
"307368",436,4,1,18,"SPA",0,0,0,"highschool",2,1,5,0,14,6.533333
"1314212",437,4,1,23,"WHI",0,0,0,"collegeplus",2,1,4,2,9,4.2
"1321499",438,4,1,27,"WHI",1,0,1,"somecollege",4,1,5,0,10,4.666667
"439964",439,4,0,19,"WHI",1,0,0,"somecollege",2,1,4,0,8,3.733333
"1130931",440,4,1,13,"WHI",0,0,0,"highschool",93,0,1,0,0,0
"579111",441,4,0,26,"WHI",1,0,0,"somecollege",2,1,2,1,5,2.333333
"1763454",442,4,1,71,"WHI",1,0,1,"highschool",2,1,7,10,90,42
"1496346",443,4,1,37,"WHI",1,1,1,"highschool",5,0,1,0,0,0
"1010498",444,4,0,69,"WHI",1,0,1,"highschool",4,0,1,0,0,0
"1417206",445,4,1,32,"WHI",1,0,0,"highschool",2,1,1,0,0,0
"1620089",446,4,1,56,"WHI",1,0,1,"highschool",4,1,5,2,20,9.333333
"467629",447,4,0,18,"WHI",1,0,0,"highschool",4,1,1,0,0,0
"639447",448,4,0,30,"WHI",1,1,1,"collegeplus",8,1,3,0,0,0
"901765",449,4,0,50,"WHI",0,0,1,"highschool",5,0,1,0,0,0
"163974",450,4,1,39,"BLA",1,1,1,"highschool",3,0,1,0,0,0
"502327",451,4,0,20,"WHI",0,0,0,"collegeplus",1,1,5,0,12,5.6
"694682",452,4,0,33,"WHI",0,1,0,"highschool",2,0,1,0,0,0
"519333",453,4,0,21,"WHI",0,1,1,"somecollege",2,1,1,0,0,0
"1699324",454,4,1,58,"WHI",0,0,1,"highschool",3,1,4,2,16,7.466667
"1378727",455,4,1,30,"WHI",1,1,1,"collegeplus",6,1,4,0,16,7.46666666666667
"1300299",456,4,1,23,"WHI",1,0,1,"highschool",5,1,7,4,30,14
"1417824",457,4,1,32,"WHI",1,1,1,"highschool",5,0,1,0,0,0
"1278938",458,4,1,22,"WHI",1,0,0,"highschool",2,1,4,0,3,1.4
"99717",459,4,0,64,"BLA",0,0,0,"highschool",3,1,1,0,0,0
"1734940",460,4,1,64,"WHI",1,0,0,"highschool",5,1,1,0,0,0
"203204",461,4,0,19,"OTH",0,0,0,"somecollege",2,1,1,0,0,0
"1529773",462,4,1,40,"WHI",1,0,0,"highschool",5,1,5,3,20,9.333333
"906271",463,4,0,52,"WHI",0,1,1,"highschool",2,1,7,0,210,98
"588207",464,4,0,25,"WHI",0,1,1,"somecollege",4,1,5,0,10,4.666667
"303126",465,4,1,17,"SPA",0,0,0,"highschool",93,0,1,0,0,0
"595216",466,4,0,26,"WHI",0,1,0,"somecollege",2,1,1,0,0,0
"665706",467,4,0,33,"WHI",1,1,0,"highschool",2,1,2,0,0,0
"1580592",468,4,1,49,"WHI",0,1,1,"highschool",2,1,1,0,0,0
"1119178",469,4,1,12,"WHI",0,0,0,"highschool",93,0,1,0,0,0
"1764704",470,4,1,69,"WHI",0,0,1,"highschool",2,0,1,0,0,0
"241031",471,4,1,61,"OTH",0,0,1,"highschool",2,0,1,0,0,0
"1151873",472,4,1,15,"WHI",0,0,0,"highschool",93,1,2,1,3,1.4
"1224773",473,4,1,19,"WHI",1,0,0,"highschool",3,1,7,20,90,42
"802238",474,4,0,45,"WHI",1,0,0,"highschool",4,1,4,0,8,3.73333333333333
"1630886",475,4,1,58,"WHI",0,1,1,"highschool",4,1,5,0,6,2.8
"174700",476,4,1,46,"BLA",1,1,1,"highschool",4,0,1,0,0,0
"1799570",477,4,1,68,"WHI",0,0,0,"highschool",2,0,1,0,0,0
"1082773",478,4,0,62,"WHI",0,0,0,"highschool",2,0,1,0,0,0
"1674000",479,4,1,54,"WHI",0,0,0,"highschool",2,1,5,0,5,2.333333
"54120",480,4,0,32,"BLA",1,1,1,"highschool",4,1,2,0,1,0.4666667
"1683213",481,4,1,54,"WHI",1,0,0,"highschool",3,1,2,0,1,0.4666667
"311356",482,4,1,20,"SPA",1,0,0,"somecollege",2,1,6,1,50,23.33333
"337597",483,4,1,44,"SPA",0,1,1,"highschool",2,1,2,0,1,0.4666667
"257076",484,4,0,20,"SPA",1,1,0,"somecollege",1,1,5,2,42,19.6
"1785438",485,4,1,61,"WHI",0,0,1,"somecollege",3,1,3,0,4,1.866667
"1067875",486,4,0,73,"WHI",0,1,0,"highschool",2,0,1,0,0,0
"601950",487,4,0,26,"WHI",1,1,0,"highschool",2,1,5,4,36,16.8
"1304915",488,4,1,24,"WHI",1,0,1,"collegeplus",4,1,7,0,0,0
"444312",489,4,0,18,"WHI",0,0,0,"somecollege",4,1,5,2,42,19.6
"1739004",490,4,1,76,"WHI",0,0,1,"somecollege",3,1,3,0,4,1.866667
"1148963",491,4,1,16,"WHI",0,0,0,"highschool",93,1,1,0,0,0
"644569",492,4,0,31,"WHI",0,1,0,"somecollege",2,1,1,0,0,0
"1610976",493,4,1,54,"WHI",0,0,1,"highschool",2,1,6,0,15,7
"1768572",494,4,1,62,"WHI",1,0,0,"highschool",5,1,2,0,1,0.4666667
"1662113",495,4,1,52,"WHI",1,1,1,"highschool",3,0,1,0,0,0
"1753559",496,4,1,65,"WHI",1,1,1,"highschool",2,0,1,0,0,0
"1330810",497,4,1,27,"WHI",1,0,0,"collegeplus",2,1,5,1,8,3.733333
"1093816",498,4,0,79,"WHI",0,0,1,"highschool",2,0,1,0,0,0
"1230208",499,4,1,19,"WHI",1,1,1,"highschool",2,1,1,0,0,0
"1042399",500,4,0,61,"WHI",0,0,0,"highschool",8,0,1,0,0,0
"1516173",501,4,1,39,"WHI",1,0,0,"somecollege",4,0,1,0,0,0
"220768",502,4,0,65,"OTH",0,0,0,"highschool",1,0,1,0,0,0
"39555",503,4,0,27,"BLA",1,1,0,"highschool",2,1,1,0,0,0
"59592",504,4,0,38,"BLA",0,1,0,"highschool",2,1,2,0,1,0.4666667
"1534641",505,4,1,41,"WHI",1,1,1,"collegeplus",8,0,1,0,0,0
"1244407",506,4,1,20,"WHI",0,0,0,"somecollege",2,1,6,5,162,75.6
"1722526",507,4,1,62,"WHI",1,0,0,"highschool",2,1,1,0,0,0
"1300312",508,4,1,23,"WHI",1,0,0,"highschool",4,1,6,3,150,70
"932734",509,4,0,54,"WHI",1,0,1,"somecollege",8,1,1,0,0,0
"731061",510,4,0,37,"WHI",0,1,0,"highschool",2,0,1,0,0,0
"188028",511,4,1,53,"BLA",0,1,1,"highschool",2,1,1,0,0,0
"506231",512,4,0,20,"WHI",0,0,0,"somecollege",1,1,5,1,60,28
"507805",513,4,0,22,"WHI",1,0,1,"highschool",4,1,1,0,0,0
"359364",514,4,0,13,"WHI",0,0,0,"highschool",93,0,1,0,0,0
"810276",515,4,0,48,"WHI",0,0,1,"highschool",9,1,6,0,15,7
"1483953",516,4,1,38,"WHI",1,1,1,"collegeplus",7,1,4,0,3,1.4
"593030",517,4,0,26,"WHI",1,0,0,"collegeplus",3,1,2,0,2,0.9333333
"417741",518,4,0,16,"WHI",0,0,0,"highschool",93,0,1,0,0,0
"528249",519,4,0,24,"WHI",1,1,0,"somecollege",2,1,5,0,10,4.666667
"1220522",520,4,1,19,"WHI",1,0,1,"highschool",1,1,4,2,15,7
"812791",521,4,0,46,"WHI",0,0,0,"highschool",2,0,1,0,0,0
"1260584",522,4,1,20,"WHI",1,0,0,"highschool",2,1,6,2,20,9.333333
"1768473",523,4,1,75,"WHI",0,0,1,"highschool",2,1,2,0,1,0.4666667
"398235",524,4,0,17,"WHI",0,0,0,"highschool",93,1,2,0,1,0.4666667
"1550634",525,4,1,42,"WHI",0,0,0,"somecollege",2,1,1,0,0,0
"798206",526,4,0,43,"WHI",0,1,1,"highschool",2,1,1,0,0,0
"1546164",527,4,1,40,"WHI",0,0,0,"somecollege",2,1,1,0,0,0
"1292150",528,4,1,24,"WHI",1,1,1,"highschool",2,1,5,0,24,11.2
"162547",529,4,1,38,"BLA",1,1,1,"highschool",4,1,6,10,60,28
"1008538",530,4,0,74,"WHI",0,0,1,"highschool",2,1,2,0,2,0.9333333
"556852",531,4,0,27,"WHI",1,0,1,"collegeplus",6,0,1,0,0,0
"241224",532,4,1,64,"OTH",0,0,1,"highschool",2,0,1,0,0,0
"1209553",533,4,1,19,"WHI",0,0,1,"highschool",2,1,5,4,49,22.86667
"285110",534,4,0,46,"SPA",0,1,1,"highschool",2,0,1,0,0,0
"1445324",535,4,1,33,"WHI",1,0,0,"collegeplus",3,1,6,12,120,56
"497673",536,4,0,22,"WHI",0,1,0,"highschool",2,1,6,7,0,0
"842703",537,4,0,46,"WHI",0,0,1,"highschool",4,1,5,0,10,4.666667
"380612",538,4,0,15,"WHI",0,0,0,"highschool",93,1,4,1,24,11.2
"168315",539,4,1,35,"BLA",1,0,1,"collegeplus",7,1,2,0,1,0.4666667
"1583722",540,4,1,47,"WHI",1,1,1,"highschool",5,0,1,0,0,0
"1492634",541,4,1,36,"WHI",1,1,1,"highschool",5,1,1,0,0,0
"710119",542,4,0,36,"WHI",1,0,0,"highschool",2,1,5,1,30,14
"1537367",543,4,1,44,"WHI",0,1,1,"highschool",2,0,1,0,0,0
"681358",544,4,0,32,"WHI",1,0,0,"collegeplus",4,1,5,0,12,5.6
"1236268",545,4,1,20,"WHI",0,0,0,"somecollege",2,1,5,1,48,22.4
"545708",546,4,0,24,"WHI",0,1,0,"somecollege",2,1,5,4,24,11.2
"854200",547,4,0,59,"WHI",1,0,1,"highschool",5,0,1,0,0,0
"480089",548,4,0,21,"WHI",1,0,0,"somecollege",3,1,5,1,48,22.4
"1772548",549,4,1,74,"WHI",0,0,1,"highschool",2,0,1,0,0,0
"1074226",550,4,0,64,"WHI",1,0,1,"highschool",4,1,3,0,4,1.866667
"983860",551,4,0,65,"WHI",0,0,1,"highschool",2,1,1,0,0,0
"64248",552,4,0,39,"BLA",0,1,0,"highschool",2,1,2,0,1,0.4666667
"951295",553,4,0,55,"WHI",1,1,0,"highschool",3,0,1,0,0,0
"1752263",554,4,1,78,"WHI",1,0,1,"somecollege",8,1,6,0,15,7
"1546763",555,4,1,43,"WHI",1,1,1,"somecollege",5,1,3,0,4,1.866667
"355311",556,4,0,13,"WHI",0,0,0,"highschool",93,0,1,0,0,0
"43047",557,4,0,28,"BLA",0,1,1,"highschool",2,0,1,0,0,0
"693595",558,4,0,33,"WHI",0,1,1,"highschool",4,0,1,0,0,0
"1761513",559,4,1,60,"WHI",1,1,1,"highschool",2,0,1,0,0,0
"558699",560,4,0,27,"WHI",1,0,0,"collegeplus",2,1,1,0,0,0
"1322184",561,4,1,26,"WHI",1,1,0,"highschool",2,1,5,4,30,14
"93243",562,4,0,68,"BLA",0,1,0,"highschool",2,0,1,0,0,0
"1525407",563,4,1,41,"WHI",1,0,0,"highschool",7,1,5,0,7,3.266667
"1079833",564,4,0,78,"WHI",0,0,0,"highschool",2,1,1,0,0,0
"207903",565,4,0,26,"OTH",1,1,0,"highschool",2,1,5,3,30,14
"1483302",566,4,1,38,"WHI",1,0,0,"highschool",3,1,5,0,15,7
"793220",567,4,0,41,"WHI",0,1,1,"somecollege",5,1,1,0,0,0
"173301",568,4,1,43,"BLA",1,1,1,"highschool",7,1,5,0,15,7
"951571",569,4,0,51,"WHI",1,0,1,"highschool",2,1,4,0,8,3.733333
"1390469",570,4,1,29,"WHI",0,1,1,"collegeplus",2,1,5,0,12,5.6
"1591154",571,4,1,49,"WHI",1,1,1,"highschool",6,0,1,0,0,0
"1164564",572,4,1,14,"WHI",0,0,0,"highschool",93,0,1,0,0,0
"1578991",573,4,1,45,"WHI",1,1,1,"highschool",4,1,3,0,2,0.9333333
"533790",574,4,0,23,"WHI",1,0,0,"somecollege",2,1,6,4,40,18.66667
"395330",575,4,0,15,"WHI",0,0,0,"highschool",93,1,6,6,64,29.86667
"718621",576,4,0,35,"WHI",1,1,0,"highschool",2,1,2,0,1,0.4666667
"1098377",577,4,0,67,"WHI",0,0,1,"highschool",2,0,1,0,0,0
"1314174",578,4,1,23,"WHI",1,0,0,"highschool",2,1,6,4,50,23.33333
"1039679",579,4,0,70,"WHI",0,0,1,"somecollege",2,0,1,0,0,0
"77775",580,4,0,48,"BLA",0,0,0,"highschool",2,0,1,0,0,0
"1596660",581,4,1,45,"WHI",1,0,1,"highschool",2,0,1,0,0,0
"1231652",582,4,1,18,"WHI",1,0,0,"highschool",7,1,6,3,30,14
"883825",583,4,0,52,"WHI",0,0,1,"somecollege",6,0,1,0,0,0
"1491375",584,4,1,35,"WHI",1,1,1,"highschool",7,1,4,0,12,5.6
"229214",585,4,1,27,"OTH",0,0,0,"highschool",3,1,6,0,20,9.333333
"1369622",586,4,1,25,"WHI",0,1,1,"highschool",2,1,6,3,26,12.13333
"879676",587,4,0,54,"WHI",1,1,0,"highschool",2,1,2,0,1,0.4666667
"122528",588,4,1,17,"BLA",0,0,0,"highschool",93,0,1,0,0,0
"1278153",589,4,1,22,"WHI",1,0,0,"highschool",3,1,6,4,40,18.66667
"1031259",590,4,0,81,"WHI",0,0,1,"highschool",2,1,2,0,2,0.9333333
"1070647",591,4,0,61,"WHI",1,0,1,"highschool",2,0,1,0,0,0
"1625550",592,4,1,58,"WHI",1,1,1,"collegeplus",7,1,6,0,15,7
"1290011",593,4,1,23,"WHI",1,0,1,"highschool",2,1,4,0,6,2.8
"1211914",594,4,1,19,"WHI",1,0,0,"highschool",6,1,5,3,15,7
"160412",595,4,1,34,"BLA",0,0,0,"collegeplus",2,0,1,0,0,0
"1540592",596,4,1,42,"WHI",1,1,0,"collegeplus",9,1,4,0,4,1.866667
"1610817",597,4,1,50,"WHI",0,0,1,"highschool",2,0,1,0,0,0
"711016",598,4,0,35,"WHI",0,1,0,"highschool",1,0,1,0,0,0
"1753949",599,4,1,60,"WHI",0,0,0,"highschool",2,0,1,0,0,0
"791240",600,4,0,43,"WHI",0,1,0,"highschool",2,1,1,0,0,0
"150199",601,4,1,25,"BLA",1,0,0,"somecollege",2,1,2,0,4,1.866667
"1197857",602,4,1,15,"WHI",0,0,0,"highschool",93,1,6,2,30,14
"1818956",603,4,1,72,"WHI",0,0,1,"highschool",2,0,1,0,0,0
"187660",604,4,1,56,"BLA",0,0,0,"highschool",4,1,5,0,12,5.6
"247574",605,4,0,15,"SPA",0,0,0,"highschool",93,0,1,0,0,0
"726198",606,4,0,39,"WHI",0,1,1,"collegeplus",3,0,1,0,0,0
"213838",607,4,0,39,"OTH",1,1,0,"highschool",2,0,1,0,0,0
"45278",608,4,0,27,"BLA",1,1,1,"highschool",7,1,2,0,2,0.9333333
"499597",609,4,0,20,"WHI",0,0,0,"somecollege",4,1,4,0,4,1.866667
"1435782",610,4,1,31,"WHI",1,1,1,"highschool",5,0,1,0,0,0
"1623880",611,4,1,57,"WHI",1,0,0,"highschool",5,1,4,4,24,11.2
"969076",612,4,0,60,"WHI",0,0,1,"somecollege",2,0,1,0,0,0
"139168",613,4,1,23,"BLA",1,0,0,"highschool",3,1,5,3,40,18.66667
"1554650",614,4,1,40,"WHI",1,1,1,"somecollege",6,1,7,0,180,84
"930457",615,4,0,55,"WHI",1,0,0,"somecollege",5,1,7,0,150,70
"317232",616,4,1,24,"SPA",1,0,0,"collegeplus",4,1,3,0,2,0.9333333
"1759299",617,4,1,75,"WHI",0,0,1,"highschool",2,0,1,0,0,0
"997304",618,4,0,60,"WHI",0,0,0,"highschool",2,0,1,0,0,0
"427624",619,4,0,16,"WHI",0,0,0,"highschool",93,1,3,0,4,1.866667
"793451",620,4,0,42,"WHI",0,1,0,"highschool",2,1,6,1,45,21
"1423686",621,4,1,33,"WHI",0,1,1,"somecollege",2,1,3,0,4,1.866667
"1547341",622,4,1,41,"WHI",0,0,0,"somecollege",2,1,1,0,0,0
"526406",623,4,0,23,"WHI",0,1,1,"highschool",3,1,1,0,0,0
"1593128",624,4,1,46,"WHI",1,1,1,"somecollege",4,1,6,27,54,25.2
"180443",625,4,1,51,"BLA",0,0,0,"somecollege",4,1,2,1,4,1.866667
"343963",626,4,1,58,"SPA",1,1,1,"highschool",3,1,5,0,21,9.8
"928474",627,4,0,56,"WHI",1,0,0,"highschool",3,1,1,0,0,0
"278884",628,4,0,36,"SPA",0,1,0,"highschool",2,1,5,0,10,4.666667
"1186568",629,4,1,16,"WHI",0,0,0,"highschool",93,1,6,10,90,42
"1533705",630,4,1,42,"WHI",0,0,0,"highschool",2,0,1,0,0,0
"253361",631,4,0,19,"SPA",0,0,0,"highschool",4,1,1,0,0,0
"175672",632,4,1,46,"BLA",1,1,0,"highschool",4,0,1,0,0,0
"1684365",633,4,1,58,"WHI",0,1,1,"somecollege",4,1,6,0,28,13.06667
"1324602",634,4,1,26,"WHI",0,1,1,"highschool",7,1,5,0,20,9.333333
"877688",635,4,0,50,"WHI",1,0,0,"highschool",3,1,5,0,10,4.666667
"1143704",636,4,1,16,"WHI",0,0,0,"highschool",93,1,1,0,0,0
"899580",637,4,0,53,"WHI",0,1,1,"highschool",1,1,1,0,0,0
"182602",638,4,1,53,"BLA",1,0,1,"highschool",4,1,6,0,75,35
"746889",639,4,0,35,"WHI",0,1,0,"highschool",2,1,2,1,0,0
"154531",640,4,1,30,"BLA",1,0,0,"highschool",2,1,5,3,5,2.333333
"1284775",641,4,1,24,"WHI",1,1,1,"highschool",3,1,6,0,15,7
"603560",642,4,0,27,"WHI",1,1,1,"somecollege",5,1,1,0,0,0
"1201978",643,4,1,18,"WHI",1,0,0,"highschool",4,1,6,2,0,0
"1007022",644,4,0,72,"WHI",0,0,1,"highschool",2,0,1,0,0,0
"355856",645,4,0,13,"WHI",0,0,0,"highschool",93,1,1,0,0,0
"174289",646,4,1,49,"BLA",0,0,1,"highschool",3,0,1,0,0,0
"2861",647,4,0,12,"BLA",0,0,0,"highschool",93,0,1,0,0,0
"1158464",648,4,1,16,"WHI",0,0,0,"highschool",93,0,1,0,0,0
"1634614",649,4,1,52,"WHI",0,0,1,"highschool",2,0,1,0,0,0
"64054",650,4,0,36,"BLA",1,1,0,"highschool",4,0,1,0,0,0
"252105",651,4,0,18,"SPA",0,1,0,"highschool",1,1,1,0,0,0
"19881",652,4,0,18,"BLA",1,0,0,"somecollege",4,0,1,0,0,0
"668421",653,4,0,32,"WHI",0,1,0,"highschool",2,0,1,0,0,0
"976761",654,4,0,66,"WHI",0,0,0,"highschool",2,0,1,0,0,0
"1452054",655,4,1,32,"WHI",1,0,0,"highschool",2,1,1,0,0,0
"1062992",656,4,0,60,"WHI",0,0,1,"collegeplus",6,1,4,0,4,1.866667
"205738",657,4,0,23,"OTH",1,1,0,"somecollege",5,0,1,0,0,0
"1611711",658,4,1,57,"WHI",1,0,1,"collegeplus",7,1,1,0,0,0
"1642751",659,4,1,55,"WHI",1,0,1,"highschool",5,0,1,0,0,0
"1063254",660,4,0,80,"WHI",0,0,1,"highschool",2,0,1,0,0,0
"1344769",661,4,1,25,"WHI",1,1,1,"highschool",6,1,6,2,15,7
"1382103",662,4,1,29,"WHI",0,1,1,"collegeplus",2,1,5,0,12,5.6
"77250",663,4,0,45,"BLA",0,0,0,"highschool",2,0,1,0,0,0
"848234",664,4,0,47,"WHI",1,1,0,"highschool",2,1,6,0,90,42
"1492116",665,4,1,38,"WHI",1,1,1,"highschool",4,1,1,0,0,0
"615489",666,4,0,29,"WHI",1,1,0,"somecollege",4,1,4,0,4,1.866667
"992230",667,4,0,61,"WHI",0,0,1,"highschool",2,0,1,0,0,0
"1293863",668,4,1,23,"WHI",1,1,1,"highschool",2,1,3,1,2,0.9333333
"1596800",669,4,1,46,"WHI",1,0,1,"highschool",2,1,4,0,4,1.866667
"234760",670,4,1,35,"OTH",1,1,1,"highschool",4,1,3,0,4,1.866667
"69396",671,4,0,43,"BLA",0,1,1,"highschool",2,1,2,0,0,0
"1629541",672,4,1,54,"WHI",0,0,1,"highschool",2,1,6,0,15,7
"1807174",673,4,1,64,"WHI",0,0,1,"highschool",2,0,1,0,0,0
"584445",674,4,0,27,"WHI",1,0,0,"collegeplus",2,1,5,0,16,7.466667
"1278572",675,4,1,21,"WHI",1,0,0,"somecollege",2,1,5,3,10,4.666667
"1665978",676,4,1,54,"WHI",1,0,1,"highschool",5,0,1,0,0,0
"1049291",677,4,0,61,"WHI",0,0,1,"highschool",2,1,1,0,0,0
"1060331",678,4,0,60,"WHI",0,0,1,"highschool",3,1,1,0,0,0
"571940",679,4,0,25,"WHI",1,1,1,"somecollege",2,1,2,0,1,0.4666667
"1502170",680,4,1,39,"WHI",1,1,1,"collegeplus",5,0,1,0,0,0
"123744",681,4,1,17,"BLA",0,0,0,"highschool",93,1,1,0,0,0
"547194",682,4,0,24,"WHI",0,1,0,"somecollege",2,1,5,4,24,11.2
"924896",683,4,0,57,"WHI",1,1,0,"highschool",2,1,2,0,1,0.4666667
"1313719",684,4,1,24,"WHI",1,1,0,"highschool",4,1,4,0,6,2.8
"1440616",685,4,1,33,"WHI",1,1,1,"highschool",7,1,5,0,10,4.666667
"529996",686,4,0,23,"WHI",1,0,0,"somecollege",5,1,4,1,16,7.466667
"1204932",687,4,1,18,"WHI",1,0,0,"highschool",2,0,1,0,0,0
"1061028",688,4,0,80,"WHI",0,0,1,"highschool",2,0,1,0,0,0
"1079128",689,4,0,65,"WHI",0,0,0,"collegeplus",2,0,1,0,0,0
"1269790",690,4,1,21,"WHI",1,0,0,"highschool",4,1,3,0,2,0.9333333
"12803",691,4,0,16,"BLA",0,0,0,"highschool",93,0,1,0,0,0
"606304",692,4,0,26,"WHI",1,0,0,"collegeplus",3,0,1,0,0,0
"148503",693,4,1,27,"BLA",1,0,0,"highschool",2,1,7,2,60,28
"1449020",694,4,1,31,"WHI",1,1,1,"collegeplus",5,1,2,0,2,0.9333333
"162962",695,4,1,38,"BLA",0,1,1,"somecollege",4,1,7,30,120,56
"177662",696,4,1,47,"BLA",0,0,0,"somecollege",3,1,5,0,14,6.533333
"1428057",697,4,1,33,"WHI",1,1,1,"somecollege",3,1,3,0,6,2.8
"416728",698,4,0,15,"WHI",0,0,0,"highschool",93,1,4,0,3,1.4
"55708",699,4,0,32,"BLA",1,1,0,"highschool",2,1,5,0,7,3.266667
"462189",700,4,0,18,"WHI",1,1,1,"highschool",4,0,1,0,0,0
"93473",701,4,0,70,"BLA",0,0,0,"highschool",4,0,1,0,0,0
"942344",702,4,0,57,"WHI",1,0,0,"somecollege",5,1,7,0,150,70
"60584",703,4,0,37,"BLA",1,1,0,"highschool",6,1,5,0,10,4.666667
"524259",704,4,0,24,"WHI",1,0,0,"highschool",6,1,4,0,8,3.733333
"1715438",705,4,1,63,"WHI",1,0,0,"highschool",2,1,1,0,0,0
"1676685",706,4,1,52,"WHI",0,1,1,"highschool",4,1,5,0,6,2.8
"1262745",707,4,1,20,"WHI",0,0,0,"collegeplus",2,1,2,0,1,0.4666667
"1136492",708,4,1,12,"WHI",0,0,0,"highschool",93,0,1,0,0,0
"1444673",709,4,1,31,"WHI",1,0,0,"collegeplus",5,1,3,0,2,0.9333333
"501023",710,4,0,21,"WHI",0,0,0,"somecollege",2,1,5,1,42,19.6
"551055",711,4,0,24,"WHI",0,0,0,"collegeplus",2,1,5,0,10,4.666667
"1180898",712,4,1,14,"WHI",0,0,0,"highschool",93,1,2,0,2,0.9333333
"40575",713,4,0,28,"BLA",0,1,0,"somecollege",2,1,2,0,1,0.4666667
"1504576",714,4,1,39,"WHI",1,1,1,"collegeplus",5,0,1,0,0,0
"466033",715,4,0,19,"WHI",1,0,1,"highschool",3,1,1,0,0,0
"1556653",716,4,1,41,"WHI",0,0,0,"somecollege",2,1,1,0,0,0
"381765",717,4,0,16,"WHI",0,0,0,"highschool",93,1,5,8,48,22.4
"937567",718,4,0,59,"WHI",1,1,1,"highschool",2,0,1,0,0,0
"893674",719,4,0,51,"WHI",0,0,1,"highschool",7,0,1,0,0,0
"898695",720,4,0,57,"WHI",1,0,1,"highschool",5,1,2,0,1,0.4666667
"246648",721,4,0,15,"SPA",0,0,0,"highschool",93,0,1,0,0,0
"1086858",722,4,0,63,"WHI",0,0,1,"highschool",2,0,1,0,0,0
"435789",723,4,0,14,"WHI",0,0,0,"highschool",93,1,2,0,0,0
"1640462",724,4,1,56,"WHI",0,1,1,"highschool",4,0,1,0,0,0
"1757345",725,4,1,60,"WHI",0,0,1,"highschool",3,0,1,0,0,0
"369789",726,4,0,13,"WHI",0,0,0,"highschool",93,0,1,0,0,0
"337636",727,4,1,44,"SPA",0,1,1,"highschool",2,1,2,0,1,0.4666667
"1217220",728,4,1,19,"WHI",0,0,0,"highschool",4,1,6,10,40,18.66667
"951501",729,4,0,57,"WHI",1,1,0,"highschool",2,1,2,0,1,0.4666667
"480104",730,4,0,20,"WHI",0,1,0,"highschool",2,1,2,1,6,2.8
"1346709",731,4,1,25,"WHI",0,0,0,"highschool",2,1,7,30,240,112
"170204",732,4,1,43,"BLA",1,0,1,"somecollege",6,1,6,3,30,14
"1593310",733,4,1,45,"WHI",1,0,1,"highschool",2,1,4,3,6,2.8
"552247",734,4,0,26,"WHI",1,0,0,"collegeplus",2,1,5,0,16,7.46666666666667
"750027",735,4,0,39,"WHI",0,1,0,"highschool",2,1,2,1,0,0
"1466286",736,4,1,38,"WHI",1,1,1,"somecollege",5,1,6,0,84,39.2
"1341016",737,4,1,27,"WHI",1,1,1,"highschool",5,1,4,0,12,5.6
"783778",738,4,0,43,"WHI",1,1,0,"highschool",2,1,4,0,8,3.733333
"1255064",739,4,1,20,"WHI",1,0,0,"somecollege",2,1,4,1,16,7.466667
"1245978",740,4,1,20,"WHI",0,0,0,"highschool",2,1,5,3,14,6.533333
"373261",741,4,0,12,"WHI",0,0,0,"highschool",93,0,1,0,0,0
"149576",742,4,1,25,"BLA",1,1,1,"somecollege",3,1,2,0,2,0.9333333
"313052",743,4,1,21,"SPA",1,0,0,"somecollege",2,1,6,1,50,23.33333
"668815",744,4,0,33,"WHI",0,1,1,"highschool",5,1,2,0,1,0.4666667
"583737",745,4,0,27,"WHI",0,0,0,"collegeplus",2,1,5,1,20,9.333333
"1234969",746,4,1,21,"WHI",0,0,1,"somecollege",1,1,4,1,21,9.8
"1680295",747,4,1,59,"WHI",1,0,1,"highschool",3,1,5,0,10,4.666667
"194437",748,4,1,62,"BLA",0,0,0,"highschool",2,0,1,0,0,0
"900932",749,4,0,54,"WHI",0,0,1,"highschool",2,0,1,0,0,0
"1597689",750,4,1,48,"WHI",1,0,1,"highschool",5,1,7,25,60,28
"1435168",751,4,1,33,"WHI",1,0,1,"somecollege",6,1,5,0,15,7
"1572234",752,4,1,48,"WHI",1,0,1,"highschool",2,0,1,0,0,0
"1020572",753,4,0,69,"WHI",0,0,1,"somecollege",2,1,4,0,8,3.733333
"1115377",754,4,1,13,"WHI",0,0,0,"highschool",93,0,1,0,0,0
"1331783",755,4,1,27,"WHI",0,0,0,"highschool",2,0,1,0,0,0
"389239",756,4,0,17,"WHI",0,0,0,"highschool",93,0,1,0,0,0
"1759005",757,4,1,61,"WHI",0,0,1,"highschool",2,1,4,0,8,3.733333
"1674739",758,4,1,56,"WHI",1,0,1,"highschool",4,1,5,2,20,9.333333
"1201391",759,4,1,19,"WHI",1,0,0,"highschool",2,0,1,0,0,0
"272004",760,4,0,34,"SPA",0,1,0,"highschool",2,0,1,0,0,0
"952739",761,4,0,80,"WHI",0,0,1,"highschool",2,0,1,0,0,0
"1537977",762,4,1,41,"WHI",0,1,1,"highschool",2,0,1,0,0,0
"735112",763,4,0,35,"WHI",0,1,0,"highschool",1,0,1,0,0,0
"647207",764,4,0,32,"WHI",0,1,0,"highschool",2,1,4,0,6,2.8
"102343",765,4,0,61,"BLA",0,1,0,"highschool",2,0,1,0,0,0
"1154636",766,4,1,17,"WHI",0,0,0,"highschool",93,0,1,0,0,0
"1489817",767,4,1,38,"WHI",1,1,1,"somecollege",9,0,1,0,0,0
"1502676",768,4,1,35,"WHI",1,0,0,"highschool",4,1,4,1,9,4.2
"1108180",769,4,0,75,"WHI",0,0,1,"somecollege",2,1,4,0,8,3.733333
"353353",770,4,0,13,"WHI",0,0,0,"highschool",93,0,1,0,0,0
"122143",771,4,1,15,"BLA",0,0,0,"highschool",93,0,1,0,0,0
"856093",772,4,0,56,"WHI",0,0,1,"collegeplus",7,0,1,0,0,0
"1522813",773,4,1,42,"WHI",1,1,1,"collegeplus",9,1,6,0,30,14
"146641",774,4,1,26,"BLA",1,1,1,"somecollege",3,0,1,0,0,0
"43124",775,4,0,25,"BLA",0,1,0,"somecollege",2,1,2,0,1,0.4666667
"1517526",776,4,1,36,"WHI",1,1,1,"highschool",7,0,1,0,0,0
"1809623",777,4,1,63,"WHI",0,0,1,"highschool",2,0,1,0,0,0
"1284344",778,4,1,24,"WHI",1,0,0,"collegeplus",9,1,7,1,60,28
"550159",779,4,0,23,"WHI",1,0,1,"highschool",6,1,3,0,4,1.866667
"912174",780,4,0,51,"WHI",1,1,0,"highschool",2,1,2,0,1,0.4666667
"678583",781,4,0,33,"WHI",0,1,1,"somecollege",6,1,1,0,0,0
"178310",782,4,1,47,"BLA",0,0,1,"highschool",3,0,1,0,0,0
"1743838",783,4,1,62,"WHI",0,0,1,"highschool",4,1,7,0,0,0
"529843",784,4,0,23,"WHI",1,1,1,"highschool",6,1,4,4,20,9.333333
"659022",785,4,0,31,"WHI",1,1,0,"collegeplus",2,0,1,0,0,0
"1512724",786,4,1,37,"WHI",1,0,0,"somecollege",4,0,1,0,0,0
"1568852",787,4,1,46,"WHI",1,1,1,"highschool",5,0,1,0,0,0
"96970",788,4,0,72,"BLA",0,1,0,"highschool",2,0,1,0,0,0
"1718408",789,4,1,69,"WHI",0,0,0,"highschool",2,1,4,0,8,3.733333
"1711696",790,4,1,77,"WHI",1,0,1,"somecollege",7,1,5,0,7,3.266667
"1203676",791,4,1,18,"WHI",0,0,0,"highschool",4,1,6,10,40,18.66667
"966084",792,4,0,74,"WHI",0,0,0,"highschool",2,1,1,0,0,0
"1365864",793,4,1,26,"WHI",1,0,1,"highschool",4,1,2,0,1,0.4666667
"571772",794,4,0,27,"WHI",1,1,0,"highschool",2,1,5,4,36,16.8
"1558769",795,4,1,40,"WHI",1,1,1,"highschool",3,1,1,0,0,0
"287646",796,4,0,50,"SPA",1,0,1,"highschool",4,1,2,0,1,0.4666667
"1326074",797,4,1,28,"WHI",1,0,0,"highschool",2,1,5,0,0,0
"105210",798,4,0,66,"BLA",0,0,0,"highschool",4,0,1,0,0,0
"1186223",799,4,1,16,"WHI",0,0,0,"highschool",93,1,4,0,8,3.733333
"842450",800,4,0,45,"WHI",1,0,0,"collegeplus",2,0,1,0,0,0
"658016",801,4,0,34,"WHI",0,1,1,"highschool",4,1,2,0,3,1.4
"948390",802,4,0,58,"WHI",0,0,1,"highschool",2,0,1,0,0,0
"1512899",803,4,1,36,"WHI",1,1,1,"highschool",7,1,2,0,3,1.4
"623303",804,4,0,30,"WHI",0,1,0,"collegeplus",4,1,3,0,4,1.866667
"520011",805,4,0,23,"WHI",0,1,0,"highschool",4,1,4,0,3,1.4
"1162028",806,4,1,16,"WHI",0,0,0,"highschool",93,1,1,0,0,0
"938372",807,4,0,54,"WHI",1,0,0,"highschool",3,1,4,0,3,1.4
"150928",808,4,1,26,"BLA",1,1,1,"highschool",3,1,2,0,2,0.9333333
"1541176",809,4,1,41,"WHI",1,1,1,"somecollege",7,1,6,0,28,13.06667
"767609",810,4,0,43,"WHI",0,1,0,"highschool",2,1,1,0,0,0
"30128",811,4,0,22,"BLA",0,1,0,"highschool",2,1,1,0,0,0
"789402",812,4,0,44,"WHI",1,1,0,"highschool",2,1,5,0,15,7
"876123",813,4,0,51,"WHI",0,0,1,"highschool",3,0,1,0,0,0
"1193520",814,4,1,16,"WHI",0,0,0,"highschool",93,1,5,2,25,11.66667
"108364",815,4,1,13,"BLA",0,0,0,"highschool",93,0,1,0,0,0
"1765812",816,4,1,75,"WHI",0,0,0,"highschool",2,0,1,0,0,0
"1332410",817,4,1,25,"WHI",1,1,1,"collegeplus",5,1,3,0,4,1.866667
"1658813",818,4,1,57,"WHI",1,1,1,"highschool",5,1,4,0,3,1.4
"1029216",819,4,0,67,"WHI",0,0,0,"collegeplus",2,0,1,0,0,0
"632772",820,4,0,29,"WHI",1,0,0,"collegeplus",4,1,5,0,12,5.6
"685697",821,4,0,31,"WHI",0,1,0,"highschool",2,1,4,2,12,5.6
"1087456",822,4,0,62,"WHI",0,0,1,"highschool",3,0,1,0,0,0
"42711",823,4,0,25,"BLA",1,1,0,"highschool",3,1,1,0,0,0
"933599",824,4,0,51,"WHI",1,0,0,"highschool",3,1,5,0,10,4.666667
"1110107",825,4,0,76,"WHI",0,0,0,"highschool",2,0,1,0,0,0
"786946",826,4,0,43,"WHI",0,1,1,"highschool",2,1,1,0,0,0
"252651",827,4,0,18,"SPA",1,0,0,"highschool",4,1,5,4,52,24.26667
"525232",828,4,0,23,"WHI",1,0,0,"somecollege",7,1,6,0,15,7
"640252",829,4,0,30,"WHI",0,1,0,"somecollege",2,1,1,0,0,0
"49890",830,4,0,30,"BLA",1,1,0,"highschool",2,0,1,0,0,0
"239195",831,4,1,56,"OTH",1,1,1,"highschool",4,1,1,0,0,0
"584671",832,4,0,27,"WHI",0,1,1,"somecollege",4,0,1,0,0,0
"1248761",833,4,1,21,"WHI",0,0,0,"highschool",3,1,3,0,4,1.866667
"1462229",834,4,1,31,"WHI",1,0,0,"highschool",2,1,1,0,0,0
"1554142",835,4,1,42,"WHI",1,1,1,"highschool",5,1,6,18,108,50.4
"390097",836,4,0,16,"WHI",0,0,0,"highschool",93,1,1,0,0,0
"633724",837,4,0,29,"WHI",1,1,0,"somecollege",4,1,4,0,4,1.866667
"804865",838,4,0,47,"WHI",1,1,0,"highschool",2,1,6,0,90,42
"1636068",839,4,1,57,"WHI",1,0,1,"highschool",5,0,1,0,0,0
"1573920",840,4,1,47,"WHI",1,0,1,"highschool",2,0,1,0,0,0
"430718",841,4,0,15,"WHI",0,0,0,"highschool",93,0,1,0,0,0
"565401",842,4,0,28,"WHI",1,0,0,"highschool",2,1,2,0,1,0.4666667
"588103",843,4,0,27,"WHI",0,1,0,"somecollege",2,1,1,0,0,0
"1291983",844,4,1,23,"WHI",1,1,1,"somecollege",5,1,4,0,8,3.733333
"1063539",845,4,0,73,"WHI",0,0,1,"highschool",2,1,1,0,0,0
"1002996",846,4,0,65,"WHI",0,0,1,"highschool",2,0,1,0,0,0
"1008253",847,4,0,67,"WHI",0,0,1,"highschool",4,0,1,0,0,0
"886593",848,4,0,55,"WHI",0,0,1,"highschool",2,0,1,0,0,0
"842067",849,4,0,46,"WHI",0,0,1,"highschool",6,1,3,0,4,1.866667
"905186",850,4,0,50,"WHI",0,1,1,"highschool",7,1,1,0,0,0
"678420",851,4,0,34,"WHI",1,1,0,"collegeplus",2,0,1,0,0,0
"115580",852,4,1,14,"BLA",0,0,0,"highschool",93,0,1,0,0,0
"993011",853,4,0,63,"WHI",0,0,1,"highschool",2,0,1,0,0,0
"1202436",854,4,1,19,"WHI",1,0,0,"somecollege",5,1,4,0,3,1.4
"551771",855,4,0,28,"WHI",0,1,0,"collegeplus",2,1,4,0,3,1.4
"254076",856,4,0,19,"SPA",1,0,0,"highschool",2,1,3,0,2,0.9333333
"633994",857,4,0,29,"WHI",1,1,0,"somecollege",4,1,2,0,2,0.9333333
"361378",858,4,0,12,"WHI",0,0,0,"highschool",93,0,1,0,0,0
"1424315",859,4,1,34,"WHI",0,0,0,"highschool",2,1,3,1,14,6.533333
"1114159",860,4,1,13,"WHI",0,0,0,"highschool",93,0,1,0,0,0
"1142682",861,4,1,16,"WHI",0,0,0,"highschool",93,1,4,0,6,2.8
"1297260",862,4,1,23,"WHI",1,1,1,"highschool",2,1,3,1,2,0.9333333
"1738502",863,4,1,63,"WHI",0,0,0,"highschool",2,0,1,0,0,0
"1069802",864,4,0,64,"WHI",0,1,0,"highschool",1,0,1,0,0,0
"603123",865,4,0,27,"WHI",0,1,0,"somecollege",2,1,1,0,0,0
"561567",866,4,0,27,"WHI",1,0,0,"collegeplus",9,1,5,0,5,2.333333
"302799",867,4,1,16,"SPA",0,0,0,"highschool",93,1,2,0,1,0.4666667
"1735894",868,4,1,73,"WHI",1,0,1,"highschool",4,0,1,0,0,0
"1201754",869,4,1,19,"WHI",1,0,0,"highschool",2,1,3,0,2,0.9333333
"1180894",870,4,1,17,"WHI",0,0,0,"highschool",93,1,3,1,6,2.8
"17673",871,4,0,18,"BLA",0,1,0,"highschool",2,1,1,0,0,0
"510402",872,4,0,20,"WHI",0,1,0,"highschool",2,1,2,0,1,0.4666667
"1062530",873,4,0,67,"WHI",0,0,1,"highschool",2,0,1,0,0,0
"1048301",874,4,0,72,"WHI",0,0,0,"collegeplus",2,0,1,0,0,0
"1636470",875,4,1,53,"WHI",1,0,0,"collegeplus",7,1,2,0,0,0
"1058298",876,4,0,61,"WHI",0,0,1,"highschool",4,1,6,0,0,0
"890609",877,4,0,57,"WHI",1,0,0,"somecollege",5,1,7,0,150,70
"549298",878,4,0,24,"WHI",1,0,0,"collegeplus",2,1,3,2,6,2.8
"487768",879,4,0,20,"WHI",0,1,0,"highschool",2,1,2,0,1,0.4666667
"267366",880,4,0,27,"SPA",1,1,0,"highschool",2,0,1,0,0,0
"1267585",881,4,1,20,"WHI",1,1,1,"highschool",3,0,1,0,0,0
"607988",882,4,0,27,"WHI",0,1,1,"highschool",4,1,3,0,4,1.866667
"1075017",883,4,0,66,"WHI",0,0,1,"somecollege",3,0,1,0,0,0
"574085",884,4,0,25,"WHI",1,0,0,"collegeplus",2,1,5,0,16,7.466667
"141022",885,4,1,24,"BLA",0,0,1,"highschool",2,0,1,0,0,0
"1306406",886,4,1,23,"WHI",1,1,0,"highschool",4,1,4,0,6,2.8
"285634",887,4,0,45,"SPA",1,1,0,"highschool",2,0,1,0,0,0
"321354",888,4,1,27,"SPA",1,0,0,"somecollege",3,1,6,1,15,7
"498368",889,4,0,20,"WHI",0,1,0,"highschool",2,1,2,1,6,2.8
"1666385",890,4,1,52,"WHI",0,1,1,"somecollege",4,1,6,0,28,13.06667
"766392",891,4,0,42,"WHI",1,1,1,"collegeplus",7,0,1,0,0,0
"308061",892,4,1,18,"SPA",0,0,0,"highschool",2,1,5,0,14,6.533333
"1273293",893,4,1,22,"WHI",1,0,1,"collegeplus",2,1,5,0,10,4.666667
"621464",894,4,0,29,"WHI",0,1,1,"highschool",5,1,1,0,0,0
"441807",895,4,0,19,"WHI",1,0,0,"highschool",2,1,2,1,3,1.4
"536970",896,4,0,24,"WHI",1,0,0,"collegeplus",2,1,3,2,6,2.8
"574163",897,4,0,27,"WHI",0,1,0,"collegeplus",2,1,4,0,3,1.4
"1437146",898,4,1,33,"WHI",1,1,1,"highschool",3,1,5,1,15,7
"396583",899,4,0,17,"WHI",0,0,0,"highschool",93,1,1,0,0,0
"1065890",900,4,0,61,"WHI",0,0,1,"highschool",2,0,1,0,0,0
"1579961",901,4,1,45,"WHI",0,0,1,"somecollege",4,1,7,0,180,84
"223135",902,4,1,17,"OTH",0,0,0,"highschool",93,1,4,2,24,11.2
"1185961",903,4,1,17,"WHI",0,0,0,"highschool",93,1,3,1,12,5.6
"1349390",904,4,1,26,"WHI",1,0,0,"somecollege",4,1,4,0,3,1.4
"448727",905,4,0,19,"WHI",1,0,0,"somecollege",2,1,4,0,8,3.733333
"1745531",906,4,1,69,"WHI",0,0,1,"somecollege",7,1,5,0,24,11.2
"423688",907,4,0,15,"WHI",0,0,0,"highschool",93,1,4,1,6,2.8
"1252152",908,4,1,21,"WHI",1,0,0,"highschool",2,0,1,0,0,0
"961363",909,4,0,78,"WHI",0,0,1,"highschool",2,0,1,0,0,0
"1670634",910,4,1,51,"WHI",0,0,1,"highschool",2,0,1,0,0,0
"1446124",911,4,1,31,"WHI",1,1,1,"somecollege",5,1,4,0,4,1.866667
"190726",912,4,1,65,"BLA",1,0,1,"collegeplus",2,1,4,0,16,7.466667
"884674",913,4,0,59,"WHI",0,0,0,"highschool",2,1,7,30,180,84
"145627",914,4,1,25,"BLA",1,0,0,"highschool",2,1,7,2,60,28
"1229056",915,4,1,18,"WHI",0,0,0,"highschool",5,1,4,0,9,4.2
"28055",916,4,0,20,"BLA",1,1,0,"highschool",2,1,5,0,10,4.666667
"6999",917,4,0,15,"BLA",0,0,0,"highschool",93,0,1,0,0,0
"67101",918,4,0,40,"BLA",0,0,1,"highschool",2,1,6,25,50,23.3333333333333
"1123523",919,4,1,12,"WHI",0,0,0,"highschool",93,0,1,0,0,0
"1488803",920,4,1,39,"WHI",1,0,0,"collegeplus",6,1,4,0,6,2.8
"1781100",921,4,1,69,"WHI",0,0,0,"highschool",2,1,4,0,8,3.733333
"1425155",922,4,1,31,"WHI",1,0,0,"collegeplus",6,1,4,0,12,5.6
"1392135",923,4,1,30,"WHI",1,1,1,"collegeplus",2,1,4,0,16,7.466667
"1788404",924,4,1,67,"WHI",0,0,1,"highschool",2,0,1,0,0,0
"204447",925,4,0,20,"OTH",1,0,0,"highschool",2,1,2,0,1,0.4666667
"753299",926,4,0,36,"WHI",0,1,0,"somecollege",2,1,4,0,16,7.466667
"1595047",927,4,1,46,"WHI",1,0,1,"highschool",5,1,4,0,9,4.2
"674302",928,4,0,32,"WHI",0,1,1,"collegeplus",5,0,1,0,0,0
"1238502",929,4,1,22,"WHI",1,0,0,"collegeplus",2,1,6,2,36,16.8
"843389",930,4,0,46,"WHI",0,0,0,"highschool",2,0,1,0,0,0
"1690516",931,4,1,50,"WHI",0,0,0,"highschool",2,1,5,0,5,2.333333
"1414387",932,4,1,32,"WHI",1,1,1,"collegeplus",7,1,6,1,60,28
"525765",933,4,0,24,"WHI",0,0,1,"somecollege",6,1,3,0,4,1.866667
"643612",934,4,0,32,"WHI",0,1,0,"highschool",2,1,3,0,2,0.933333333333333
"1818488",935,4,1,81,"WHI",0,0,1,"highschool",2,1,5,0,15,7
"1496524",936,4,1,38,"WHI",1,1,1,"highschool",5,0,1,0,0,0
"1258328",937,4,1,20,"WHI",1,0,0,"highschool",2,0,1,0,0,0
"1657204",938,4,1,54,"WHI",0,0,0,"highschool",2,1,5,0,5,2.333333
"1652569",939,4,1,56,"WHI",0,0,1,"highschool",2,0,1,0,0,0
"1263122",940,4,1,20,"WHI",1,0,0,"somecollege",2,1,5,3,10,4.666667
"214808",941,4,0,40,"OTH",1,1,1,"highschool",5,1,7,0,240,112
"1091357",942,4,0,77,"WHI",0,0,0,"highschool",2,1,2,0,2,0.9333333
"1350584",943,4,1,27,"WHI",1,1,1,"collegeplus",5,1,1,0,0,0
"159849",944,4,1,33,"BLA",1,1,1,"highschool",5,1,3,0,2,0.9333333
"1027525",945,4,0,71,"WHI",0,0,1,"somecollege",2,0,1,0,0,0
"382015",946,4,0,14,"WHI",0,0,0,"highschool",93,1,7,15,120,56
"1124758",947,4,1,13,"WHI",0,0,0,"highschool",93,1,1,0,0,0
"1731093",948,4,1,71,"WHI",0,0,1,"highschool",2,1,5,0,10,4.666667
"592636",949,4,0,27,"WHI",0,1,1,"highschool",4,1,1,0,0,0
"1322560",950,4,1,27,"WHI",1,1,1,"highschool",2,0,1,0,0,0
"534126",951,4,0,23,"WHI",1,0,0,"somecollege",2,1,6,4,40,18.66667
"276427",952,4,0,37,"SPA",0,1,1,"highschool",3,1,1,0,0,0
"160731",953,4,1,33,"BLA",0,0,0,"collegeplus",2,0,1,0,0,0
"877059",954,4,0,54,"WHI",0,1,1,"highschool",2,1,7,0,210,98
"890336",955,4,0,58,"WHI",0,0,1,"highschool",5,1,5,0,12,5.6
"1445480",956,4,1,32,"WHI",1,1,1,"highschool",5,1,5,0,18,8.4
"703837",957,4,0,35,"WHI",1,0,0,"collegeplus",4,1,5,0,16,7.466667
"983578",958,4,0,62,"WHI",0,0,1,"highschool",2,0,1,0,0,0
"730955",959,4,0,35,"WHI",0,1,0,"highschool",2,0,1,0,0,0
"1666797",960,4,1,51,"WHI",1,0,1,"highschool",4,0,1,0,0,0
"347720",961,4,1,62,"SPA",0,1,1,"highschool",2,1,2,0,1,0.4666667
"664735",962,4,0,33,"WHI",0,1,1,"highschool",4,0,1,0,0,0
"1078223",963,4,0,62,"WHI",0,0,1,"highschool",5,0,1,0,0,0
"264941",964,4,0,27,"SPA",0,1,0,"highschool",2,1,1,0,0,0
"707352",965,4,0,36,"WHI",0,1,1,"somecollege",6,1,1,0,0,0
"867204",966,4,0,51,"WHI",1,0,1,"highschool",2,1,4,0,8,3.733333
"719706",967,4,0,38,"WHI",1,1,0,"highschool",2,1,3,0,2,0.9333333
"632746",968,4,0,30,"WHI",1,1,1,"highschool",6,0,1,0,0,0
"1720630",969,4,1,67,"WHI",1,0,1,"highschool",4,0,1,0,0,0
"1141068",970,4,1,15,"WHI",0,0,0,"highschool",93,1,1,0,0,0
"1622516",971,4,1,50,"WHI",0,0,1,"highschool",2,1,6,0,15,7
"137337",972,4,1,20,"BLA",1,0,0,"somecollege",2,1,4,0,4,1.866667
"1798887",973,4,1,62,"WHI",0,0,1,"highschool",2,0,1,0,0,0
"1469797",974,4,1,37,"WHI",1,1,1,"highschool",2,0,1,0,0,0
"962282",975,4,0,60,"WHI",0,0,0,"highschool",2,1,4,0,3,1.4
"1199836",976,4,1,16,"WHI",0,0,0,"highschool",93,1,3,0,4,1.866667
"1667704",977,4,1,58,"WHI",0,0,0,"highschool",2,1,5,0,5,2.333333
"157053",978,4,1,31,"BLA",0,0,0,"collegeplus",2,0,1,0,0,0
"691508",979,4,0,32,"WHI",0,1,0,"highschool",2,1,1,0,0,0
"726741",980,4,0,36,"WHI",0,1,1,"somecollege",8,1,6,0,20,9.333333
"3737",981,4,0,12,"BLA",0,0,0,"highschool",93,0,1,0,0,0
"625488",982,4,0,29,"WHI",1,1,0,"highschool",2,1,5,2,18,8.4
"585816",983,4,0,28,"WHI",0,1,1,"somecollege",4,1,3,0,4,1.866667
"988472",984,4,0,70,"WHI",0,0,1,"highschool",2,0,1,0,0,0
"719169",985,4,0,39,"WHI",1,0,1,"collegeplus",9,1,5,0,14,6.533333
"543379",986,4,0,24,"WHI",0,1,1,"highschool",2,1,1,0,0,0
"1097817",987,4,0,74,"WHI",0,0,1,"highschool",2,1,1,0,0,0
"901670",988,4,0,59,"WHI",1,1,1,"highschool",2,0,1,0,0,0
"989501",989,4,0,79,"WHI",0,0,0,"highschool",2,1,1,0,0,0
"229663",990,4,1,27,"OTH",1,1,1,"somecollege",5,1,6,0,125,58.33333
"327890",991,4,1,31,"SPA",1,1,1,"collegeplus",6,1,7,0,120,56
"709010",992,4,0,36,"WHI",0,1,0,"highschool",2,1,2,1,0,0
"617609",993,4,0,29,"WHI",0,0,1,"highschool",4,1,2,0,4,1.866667
"1057374",994,4,0,80,"WHI",0,0,1,"highschool",2,1,3,0,2,0.9333333
"1662458",995,4,1,59,"WHI",1,0,1,"collegeplus",7,1,2,0,2,0.9333333
"650476",996,4,0,34,"WHI",1,1,0,"collegeplus",2,0,1,0,0,0
"388873",997,4,0,16,"WHI",0,0,0,"highschool",93,1,4,2,15,7
"1649516",998,4,1,54,"WHI",1,1,1,"highschool",5,1,5,0,15,7
"940386",999,4,0,54,"WHI",0,0,1,"highschool",2,1,4,0,8,3.733333
"573163",1000,4,0,28,"WHI",0,1,0,"highschool",2,1,2,0,2,0.9333333
